floppy_drive/images/data timing/gotek/004_data_spacing_zeroed_image.CSV

Channel			  :,CH2
Frequency			  :,F=937.6kHz
Period 			  :,T=  ?
PK-PK				  :,Vpp=6.880V
Average			  :,V=4.244V
Vertical pos		  :,-4000.00mV
Probe attenuation	  :,10X
Voltage per ADC value:,80.00mV
Time interval		  :,0.02uS

index,CH2_Voltage(mV)
0,4800.00
1,4800.00
2,4640.00
3,4800.00
4,4800.00
5,4800.00
6,4720.00
7,4800.00
8,4800.00
9,4800.00
10,4800.00
11,4800.00
12,4720.00
13,4800.00
14,4880.00
15,4800.00
16,4800.00
17,4800.00
18,4800.00
19,4800.00
20,4800.00
21,4880.00
22,4720.00
23,4720.00
24,4800.00
25,4800.00
26,4800.00
27,4720.00
28,4880.00
29,4720.00
30,4720.00
31,4800.00
32,4720.00
33,4800.00
34,4880.00
35,4720.00
36,4800.00
37,4800.00
38,4800.00
39,4720.00
40,4800.00
41,4880.00
42,4720.00
43,4960.00
44,4880.00
45,4800.00
46,4800.00
47,4880.00
48,4800.00
49,4800.00
50,4720.00
51,4800.00
52,4640.00
53,4720.00
54,4720.00
55,4800.00
56,4880.00
57,4880.00
58,4800.00
59,4800.00
60,4800.00
61,4720.00
62,4720.00
63,4720.00
64,4880.00
65,4800.00
66,4720.00
67,4880.00
68,4720.00
69,4800.00
70,4800.00
71,4800.00
72,4880.00
73,4720.00
74,4800.00
75,4800.00
76,4800.00
77,4720.00
78,4720.00
79,4800.00
80,4800.00
81,4800.00
82,4880.00
83,4720.00
84,4720.00
85,4800.00
86,4720.00
87,4720.00
88,4800.00
89,4880.00
90,4800.00
91,4720.00
92,4720.00
93,4800.00
94,4880.00
95,4800.00
96,4800.00
97,4720.00
98,4880.00
99,4720.00
100,4800.00
101,4800.00
102,4720.00
103,4640.00
104,4720.00
105,4800.00
106,4720.00
107,4720.00
108,4800.00
109,4800.00
110,4800.00
111,4720.00
112,4800.00
113,4720.00
114,4960.00
115,4800.00
116,4800.00
117,4640.00
118,4800.00
119,4960.00
120,4720.00
121,4720.00
122,4640.00
123,4800.00
124,4800.00
125,4800.00
126,4800.00
127,4800.00
128,4720.00
129,4880.00
130,4800.00
131,4720.00
132,4800.00
133,4800.00
134,4720.00
135,4800.00
136,4800.00
137,4880.00
138,4720.00
139,4880.00
140,4800.00
141,4800.00
142,4720.00
143,4800.00
144,4800.00
145,4800.00
146,4800.00
147,4800.00
148,4800.00
149,4800.00
150,4880.00
151,4800.00
152,4720.00
153,4720.00
154,4720.00
155,4800.00
156,4800.00
157,4720.00
158,4720.00
159,4800.00
160,4800.00
161,4720.00
162,4720.00
163,4720.00
164,4720.00
165,4720.00
166,4720.00
167,4720.00
168,4640.00
169,4800.00
170,4800.00
171,4800.00
172,4720.00
173,4720.00
174,4720.00
175,4800.00
176,4720.00
177,4720.00
178,4800.00
179,4720.00
180,4720.00
181,4800.00
182,4720.00
183,4720.00
184,4720.00
185,4800.00
186,4800.00
187,4720.00
188,4800.00
189,4720.00
190,4800.00
191,4720.00
192,4800.00
193,4720.00
194,4880.00
195,4800.00
196,4880.00
197,4720.00
198,4800.00
199,4720.00
200,4800.00
201,4800.00
202,4720.00
203,4720.00
204,4720.00
205,4800.00
206,4720.00
207,4800.00
208,4720.00
209,4880.00
210,4800.00
211,4720.00
212,4880.00
213,4640.00
214,4720.00
215,4720.00
216,4720.00
217,4720.00
218,4800.00
219,4880.00
220,4800.00
221,4800.00
222,4720.00
223,4720.00
224,4800.00
225,4800.00
226,4800.00
227,4720.00
228,4800.00
229,4800.00
230,4800.00
231,4800.00
232,4720.00
233,4800.00
234,4800.00
235,4800.00
236,4800.00
237,4880.00
238,4720.00
239,4720.00
240,4720.00
241,4720.00
242,4880.00
243,4640.00
244,4800.00
245,4800.00
246,4800.00
247,4720.00
248,4720.00
249,4720.00
250,4800.00
251,4720.00
252,4720.00
253,4720.00
254,4640.00
255,4800.00
256,4720.00
257,4800.00
258,4880.00
259,4800.00
260,4800.00
261,4800.00
262,4720.00
263,4800.00
264,4800.00
265,4800.00
266,4800.00
267,4720.00
268,4800.00
269,4720.00
270,4880.00
271,4880.00
272,4720.00
273,4720.00
274,4720.00
275,4800.00
276,4800.00
277,4720.00
278,4800.00
279,4720.00
280,4800.00
281,4640.00
282,4800.00
283,4720.00
284,4720.00
285,4800.00
286,4800.00
287,4720.00
288,4800.00
289,4720.00
290,4800.00
291,4720.00
292,4640.00
293,4800.00
294,4720.00
295,4800.00
296,4720.00
297,4720.00
298,4720.00
299,4720.00
300,4800.00
301,4720.00
302,4720.00
303,4800.00
304,4720.00
305,4800.00
306,4800.00
307,4720.00
308,4800.00
309,4720.00
310,4800.00
311,4800.00
312,4720.00
313,4800.00
314,4720.00
315,4800.00
316,4800.00
317,4720.00
318,4800.00
319,4960.00
320,4720.00
321,4800.00
322,4720.00
323,4800.00
324,4800.00
325,4720.00
326,4800.00
327,4880.00
328,4800.00
329,4880.00
330,4800.00
331,4800.00
332,4720.00
333,4640.00
334,4800.00
335,4800.00
336,4720.00
337,4720.00
338,4720.00
339,4800.00
340,4800.00
341,4800.00
342,4720.00
343,4720.00
344,4800.00
345,4800.00
346,4720.00
347,4720.00
348,4720.00
349,4880.00
350,4800.00
351,4800.00
352,4800.00
353,4880.00
354,4880.00
355,4800.00
356,4720.00
357,4880.00
358,4640.00
359,4640.00
360,4800.00
361,4800.00
362,4640.00
363,4720.00
364,4800.00
365,4800.00
366,4720.00
367,4720.00
368,4800.00
369,4720.00
370,4800.00
371,4800.00
372,4720.00
373,4800.00
374,4880.00
375,4800.00
376,4800.00
377,4720.00
378,4800.00
379,4800.00
380,4800.00
381,4720.00
382,4720.00
383,4640.00
384,4800.00
385,4800.00
386,4800.00
387,4640.00
388,4800.00
389,4800.00
390,4880.00
391,4800.00
392,4720.00
393,4720.00
394,4880.00
395,4720.00
396,4800.00
397,4720.00
398,4720.00
399,4720.00
400,4800.00
401,4800.00
402,4720.00
403,4800.00
404,4640.00
405,4800.00
406,4800.00
407,4480.00
408,4480.00
409,4640.00
410,4800.00
411,4800.00
412,4880.00
413,4800.00
414,4800.00
415,4800.00
416,4720.00
417,4720.00
418,4800.00
419,4800.00
420,4800.00
421,4720.00
422,4800.00
423,4720.00
424,4720.00
425,4800.00
426,4800.00
427,4720.00
428,4640.00
429,4800.00
430,4720.00
431,4720.00
432,4720.00
433,4720.00
434,4800.00
435,4800.00
436,4720.00
437,4800.00
438,4800.00
439,4800.00
440,4720.00
441,4800.00
442,4720.00
443,4720.00
444,4800.00
445,4800.00
446,4720.00
447,4720.00
448,4720.00
449,4800.00
450,4800.00
451,4800.00
452,4720.00
453,4720.00
454,4800.00
455,4720.00
456,4800.00
457,4720.00
458,4720.00
459,4880.00
460,4800.00
461,4800.00
462,4720.00
463,4800.00
464,4720.00
465,4800.00
466,4800.00
467,4720.00
468,4800.00
469,4720.00
470,4720.00
471,4720.00
472,4720.00
473,4800.00
474,4720.00
475,4800.00
476,4800.00
477,4640.00
478,4720.00
479,4720.00
480,4720.00
481,4800.00
482,4800.00
483,4640.00
484,4800.00
485,4800.00
486,4720.00
487,4720.00
488,4880.00
489,4720.00
490,4800.00
491,4720.00
492,4720.00
493,4800.00
494,4800.00
495,4800.00
496,4720.00
497,4720.00
498,4800.00
499,4880.00
500,4800.00
501,-1040.00
502,720.00
503,160.00
504,-80.00
505,0.00
506,-160.00
507,-80.00
508,-160.00
509,-80.00
510,0.00
511,-80.00
512,-80.00
513,0.00
514,-80.00
515,0.00
516,-80.00
517,80.00
518,0.00
519,-80.00
520,0.00
521,0.00
522,-80.00
523,-80.00
524,-80.00
525,0.00
526,2080.00
527,4080.00
528,4480.00
529,4800.00
530,4800.00
531,4720.00
532,4720.00
533,4880.00
534,4720.00
535,4880.00
536,4720.00
537,4720.00
538,4720.00
539,4800.00
540,4800.00
541,4880.00
542,4720.00
543,4880.00
544,4800.00
545,4800.00
546,4800.00
547,4720.00
548,4800.00
549,4800.00
550,4800.00
551,4800.00
552,4800.00
553,4880.00
554,4880.00
555,4880.00
556,4800.00
557,4720.00
558,4720.00
559,4720.00
560,4800.00
561,4720.00
562,4800.00
563,4720.00
564,4720.00
565,4800.00
566,4720.00
567,4720.00
568,4800.00
569,4880.00
570,4800.00
571,4800.00
572,4720.00
573,4800.00
574,4800.00
575,4720.00
576,4800.00
577,4720.00
578,4720.00
579,4800.00
580,4800.00
581,4800.00
582,4720.00
583,4720.00
584,4720.00
585,4720.00
586,4800.00
587,4720.00
588,4800.00
589,4720.00
590,4800.00
591,4800.00
592,4720.00
593,4640.00
594,4880.00
595,4720.00
596,4720.00
597,4720.00
598,4800.00
599,4800.00
600,4800.00
601,4800.00
602,4720.00
603,4800.00
604,4720.00
605,4880.00
606,4800.00
607,4720.00
608,4800.00
609,4800.00
610,4640.00
611,4800.00
612,4880.00
613,4800.00
614,4720.00
615,4720.00
616,4720.00
617,4880.00
618,4800.00
619,4800.00
620,4800.00
621,4640.00
622,4800.00
623,4800.00
624,4800.00
625,4720.00
626,4720.00
627,4800.00
628,4800.00
629,4800.00
630,4800.00
631,4640.00
632,4880.00
633,4800.00
634,4800.00
635,4800.00
636,4880.00
637,4800.00
638,4800.00
639,4720.00
640,4720.00
641,4800.00
642,4880.00
643,4800.00
644,4800.00
645,4720.00
646,4640.00
647,4720.00
648,4800.00
649,4800.00
650,4880.00
651,4720.00
652,4720.00
653,4800.00
654,4640.00
655,4640.00
656,4800.00
657,4720.00
658,4800.00
659,4800.00
660,4720.00
661,4720.00
662,4960.00
663,4800.00
664,4800.00
665,4640.00
666,4800.00
667,4800.00
668,4720.00
669,4800.00
670,4720.00
671,4720.00
672,4720.00
673,4800.00
674,4720.00
675,4720.00
676,4720.00
677,4800.00
678,4800.00
679,4720.00
680,4720.00
681,4720.00
682,4800.00
683,4800.00
684,4800.00
685,4720.00
686,4720.00
687,4800.00
688,4800.00
689,4880.00
690,4720.00
691,4640.00
692,4720.00
693,4800.00
694,4800.00
695,4720.00
696,4720.00
697,4880.00
698,4800.00
699,4800.00
700,4800.00
701,4720.00
702,4720.00
703,4800.00
704,4720.00
705,4720.00
706,4640.00
707,4800.00
708,4800.00
709,4720.00
710,4720.00
711,4720.00
712,4880.00
713,4720.00
714,4800.00
715,4720.00
716,4720.00
717,4720.00
718,4720.00
719,4720.00
720,4720.00
721,4720.00
722,4880.00
723,4800.00
724,4720.00
725,4720.00
726,4720.00
727,4720.00
728,4800.00
729,4800.00
730,4720.00
731,4720.00
732,4800.00
733,4800.00
734,4800.00
735,4720.00
736,4720.00
737,4800.00
738,4800.00
739,4720.00
740,4720.00
741,4640.00
742,4800.00
743,4800.00
744,4720.00
745,4720.00
746,4640.00
747,4800.00
748,4800.00
749,-800.00
750,720.00
751,240.00
752,0.00
753,-160.00
754,-160.00
755,-80.00
756,0.00
757,-80.00
758,80.00
759,0.00
760,-80.00
761,0.00
762,-80.00
763,0.00
764,-80.00
765,-80.00
766,0.00
767,-80.00
768,-80.00
769,-80.00
770,-80.00
771,0.00
772,-80.00
773,0.00
774,2080.00
775,4080.00
776,4480.00
777,4720.00
778,4800.00
779,4800.00
780,4720.00
781,4800.00
782,4800.00
783,4800.00
784,4800.00
785,4800.00
786,4640.00
787,4720.00
788,4720.00
789,4880.00
790,4800.00
791,4800.00
792,4720.00
793,4800.00
794,4800.00
795,4720.00
796,4960.00
797,4880.00
798,4800.00
799,4800.00
800,4720.00
801,4800.00
802,4720.00
803,4800.00
804,4800.00
805,4720.00
806,4800.00
807,4640.00
808,4800.00
809,4800.00
810,4720.00
811,4720.00
812,4720.00
813,4720.00
814,4720.00
815,4720.00
816,4960.00
817,4880.00
818,4800.00
819,4720.00
820,4720.00
821,4800.00
822,4800.00
823,4800.00
824,4800.00
825,4720.00
826,4720.00
827,4800.00
828,4800.00
829,4800.00
830,4880.00
831,4880.00
832,4640.00
833,4720.00
834,4800.00
835,4800.00
836,4720.00
837,4880.00
838,4800.00
839,4800.00
840,4800.00
841,4720.00
842,4720.00
843,4800.00
844,4800.00
845,4720.00
846,4720.00
847,4880.00
848,4800.00
849,4800.00
850,4720.00
851,4720.00
852,4960.00
853,4720.00
854,4800.00
855,4800.00
856,4800.00
857,4720.00
858,4720.00
859,4800.00
860,4720.00
861,4720.00
862,4800.00
863,4800.00
864,4880.00
865,4720.00
866,4800.00
867,4720.00
868,4720.00
869,4720.00
870,4720.00
871,4720.00
872,4880.00
873,4800.00
874,4720.00
875,4720.00
876,4800.00
877,4800.00
878,4800.00
879,4800.00
880,4800.00
881,4640.00
882,4720.00
883,4800.00
884,4800.00
885,4720.00
886,4640.00
887,4800.00
888,4720.00
889,4800.00
890,4720.00
891,4800.00
892,4720.00
893,4800.00
894,4720.00
895,4640.00
896,4720.00
897,4800.00
898,4800.00
899,4880.00
900,4720.00
901,4800.00
902,4720.00
903,4800.00
904,4720.00
905,4720.00
906,4800.00
907,4720.00
908,4800.00
909,4800.00
910,4720.00
911,4800.00
912,4800.00
913,4800.00
914,4800.00
915,4800.00
916,4800.00
917,4720.00
918,4800.00
919,4800.00
920,4720.00
921,4880.00
922,4800.00
923,4800.00
924,4800.00
925,4640.00
926,4800.00
927,4720.00
928,4720.00
929,4720.00
930,4720.00
931,4720.00
932,4880.00
933,4720.00
934,4800.00
935,4720.00
936,4800.00
937,4720.00
938,4800.00
939,4720.00
940,4720.00
941,4800.00
942,4800.00
943,4800.00
944,4720.00
945,4720.00
946,4720.00
947,4800.00
948,4720.00
949,4880.00
950,4800.00
951,4720.00
952,4800.00
953,4720.00
954,4800.00
955,4720.00
956,4800.00
957,4720.00
958,4800.00
959,4800.00
960,4640.00
961,4720.00
962,4720.00
963,4720.00
964,4800.00
965,4800.00
966,4640.00
967,4880.00
968,4720.00
969,4800.00
970,4720.00
971,4720.00
972,4720.00
973,4800.00
974,4800.00
975,4720.00
976,4640.00
977,4800.00
978,4640.00
979,4800.00
980,4720.00
981,4800.00
982,4720.00
983,4800.00
984,4800.00
985,4880.00
986,4800.00
987,4880.00
988,4800.00
989,4800.00
990,4720.00
991,4640.00
992,4800.00
993,4800.00
994,4720.00
995,4880.00
996,4800.00
997,4800.00
998,4800.00
999,-1040.00
1000,560.00
1001,240.00
1002,-160.00
1003,-160.00
1004,-80.00
1005,-80.00
1006,0.00
1007,-80.00
1008,0.00
1009,0.00
1010,-80.00
1011,0.00
1012,0.00
1013,0.00
1014,0.00
1015,-80.00
1016,0.00
1017,-80.00
1018,0.00
1019,-80.00
1020,-80.00
1021,0.00
1022,80.00
1023,0.00
1024,2160.00
1025,4080.00
1026,4640.00
1027,4880.00
1028,4800.00
1029,4880.00
1030,4720.00
1031,4880.00
1032,4960.00
1033,4800.00
1034,4800.00
1035,4800.00
1036,4800.00
1037,4720.00
1038,4880.00
1039,4800.00
1040,4720.00
1041,4800.00
1042,4800.00
1043,4960.00
1044,4800.00
1045,4800.00
1046,4880.00
1047,4800.00
1048,4800.00
1049,4880.00
1050,4880.00
1051,4640.00
1052,4880.00
1053,4960.00
1054,4800.00
1055,4880.00
1056,4880.00
1057,4960.00
1058,4800.00
1059,4800.00
1060,4720.00
1061,4800.00
1062,4880.00
1063,4800.00
1064,4800.00
1065,4720.00
1066,4800.00
1067,4720.00
1068,4880.00
1069,4800.00
1070,4880.00
1071,4880.00
1072,4880.00
1073,4800.00
1074,4800.00
1075,4720.00
1076,4880.00
1077,4880.00
1078,4720.00
1079,4800.00
1080,4720.00
1081,4880.00
1082,4720.00
1083,4800.00
1084,4800.00
1085,4720.00
1086,4880.00
1087,4720.00
1088,4800.00
1089,4800.00
1090,4800.00
1091,4720.00
1092,4800.00
1093,4880.00
1094,4800.00
1095,4800.00
1096,4720.00
1097,4800.00
1098,4800.00
1099,4720.00
1100,4640.00
1101,4880.00
1102,4800.00
1103,4800.00
1104,4800.00
1105,4800.00
1106,4880.00
1107,4640.00
1108,4800.00
1109,4800.00
1110,4720.00
1111,4800.00
1112,4880.00
1113,4800.00
1114,4800.00
1115,4720.00
1116,4880.00
1117,4880.00
1118,4800.00
1119,4800.00
1120,4720.00
1121,4640.00
1122,4800.00
1123,4800.00
1124,4800.00
1125,4800.00
1126,4800.00
1127,4800.00
1128,4800.00
1129,4800.00
1130,4720.00
1131,4720.00
1132,4720.00
1133,4800.00
1134,4720.00
1135,4640.00
1136,4720.00
1137,4720.00
1138,4800.00
1139,4800.00
1140,4800.00
1141,4720.00
1142,4720.00
1143,4800.00
1144,4720.00
1145,4720.00
1146,4640.00
1147,4880.00
1148,4880.00
1149,4880.00
1150,4640.00
1151,4720.00
1152,4800.00
1153,4800.00
1154,4880.00
1155,4720.00
1156,4720.00
1157,4800.00
1158,4800.00
1159,4720.00
1160,4640.00
1161,4720.00
1162,4720.00
1163,4800.00
1164,4800.00
1165,4720.00
1166,4720.00
1167,4800.00
1168,4800.00
1169,4800.00
1170,4800.00
1171,4640.00
1172,4800.00
1173,4800.00
1174,4800.00
1175,4720.00
1176,4720.00
1177,4720.00
1178,4800.00
1179,4800.00
1180,4720.00
1181,4720.00
1182,4800.00
1183,4800.00
1184,4800.00
1185,4720.00
1186,4720.00
1187,4800.00
1188,4800.00
1189,4800.00
1190,4720.00
1191,4800.00
1192,4800.00
1193,4800.00
1194,4720.00
1195,4800.00
1196,4720.00
1197,4800.00
1198,4800.00
1199,4880.00
1200,4800.00
1201,4800.00
1202,4720.00
1203,4640.00
1204,4800.00
1205,4720.00
1206,4800.00
1207,4800.00
1208,4720.00
1209,4720.00
1210,4800.00
1211,4800.00
1212,4800.00
1213,4720.00
1214,4720.00
1215,4800.00
1216,4720.00
1217,4800.00
1218,4720.00
1219,4720.00
1220,4720.00
1221,4800.00
1222,4720.00
1223,4720.00
1224,4880.00
1225,4880.00
1226,4800.00
1227,4720.00
1228,4720.00
1229,4720.00
1230,4880.00
1231,4800.00
1232,4800.00
1233,4720.00
1234,4960.00
1235,4800.00
1236,4800.00
1237,4720.00
1238,4800.00
1239,4800.00
1240,4960.00
1241,4800.00
1242,4800.00
1243,4720.00
1244,4800.00
1245,4720.00
1246,4800.00
1247,-1200.00
1248,720.00
1249,240.00
1250,-80.00
1251,-80.00
1252,-80.00
1253,-160.00
1254,-160.00
1255,-80.00
1256,0.00
1257,-80.00
1258,80.00
1259,80.00
1260,80.00
1261,0.00
1262,0.00
1263,80.00
1264,-80.00
1265,0.00
1266,0.00
1267,0.00
1268,-80.00
1269,-80.00
1270,0.00
1271,80.00
1272,2240.00
1273,4080.00
1274,4640.00
1275,4720.00
1276,4800.00
1277,4800.00
1278,4880.00
1279,4640.00
1280,4720.00
1281,4800.00
1282,4800.00
1283,4880.00
1284,4800.00
1285,4800.00
1286,4800.00
1287,4720.00
1288,4720.00
1289,4640.00
1290,4880.00
1291,4800.00
1292,4720.00
1293,4800.00
1294,4720.00
1295,4720.00
1296,4800.00
1297,4880.00
1298,4800.00
1299,4720.00
1300,4720.00
1301,4800.00
1302,4800.00
1303,4720.00
1304,4880.00
1305,4800.00
1306,4800.00
1307,4800.00
1308,4880.00
1309,4720.00
1310,4880.00
1311,4800.00
1312,4800.00
1313,4720.00
1314,4800.00
1315,4880.00
1316,4800.00
1317,4800.00
1318,4720.00
1319,4800.00
1320,4720.00
1321,4800.00
1322,4800.00
1323,4720.00
1324,4800.00
1325,4720.00
1326,4800.00
1327,4800.00
1328,4720.00
1329,4800.00
1330,4640.00
1331,4800.00
1332,4800.00
1333,4880.00
1334,4640.00
1335,4800.00
1336,4880.00
1337,4880.00
1338,4720.00
1339,4800.00
1340,4800.00
1341,4800.00
1342,4800.00
1343,4720.00
1344,4720.00
1345,4720.00
1346,4800.00
1347,4800.00
1348,4880.00
1349,4720.00
1350,4720.00
1351,4800.00
1352,4800.00
1353,4720.00
1354,4800.00
1355,4800.00
1356,4800.00
1357,4800.00
1358,4720.00
1359,4720.00
1360,4800.00
1361,4800.00
1362,4800.00
1363,4720.00
1364,4720.00
1365,4640.00
1366,4800.00
1367,4800.00
1368,4720.00
1369,4720.00
1370,4720.00
1371,4800.00
1372,4720.00
1373,4720.00
1374,4720.00
1375,4720.00
1376,4720.00
1377,4800.00
1378,4640.00
1379,4720.00
1380,4640.00
1381,4800.00
1382,4720.00
1383,4720.00
1384,4800.00
1385,4640.00
1386,4720.00
1387,4800.00
1388,4720.00
1389,4720.00
1390,4720.00
1391,4800.00
1392,4720.00
1393,4800.00
1394,4800.00
1395,4640.00
1396,4800.00
1397,4720.00
1398,4720.00
1399,4800.00
1400,4800.00
1401,4720.00
1402,4800.00
1403,4720.00
1404,4640.00
1405,4720.00
1406,4800.00
1407,4800.00
1408,4720.00
1409,4720.00
1410,4720.00
1411,4720.00
1412,4720.00
1413,4720.00
1414,4720.00
1415,4800.00
1416,4800.00
1417,4720.00
1418,4800.00
1419,4640.00
1420,4800.00
1421,4800.00
1422,4800.00
1423,4800.00
1424,4720.00
1425,4880.00
1426,4800.00
1427,4720.00
1428,4720.00
1429,4720.00
1430,4800.00
1431,4720.00
1432,4720.00
1433,4640.00
1434,4640.00
1435,4720.00
1436,4800.00
1437,4880.00
1438,4720.00
1439,4800.00
1440,4800.00
1441,4800.00
1442,4720.00
1443,4720.00
1444,4720.00
1445,4880.00
1446,4720.00
1447,4720.00
1448,4800.00
1449,4800.00
1450,4800.00
1451,4800.00
1452,4720.00
1453,4800.00
1454,4720.00
1455,4720.00
1456,4720.00
1457,4800.00
1458,4720.00
1459,4640.00
1460,4800.00
1461,4800.00
1462,4800.00
1463,4720.00
1464,4720.00
1465,4800.00
1466,4720.00
1467,4720.00
1468,4640.00
1469,4720.00
1470,4720.00
1471,4800.00
1472,4800.00
1473,4640.00
1474,4800.00
1475,4720.00
1476,4800.00
1477,4720.00
1478,4720.00
1479,4640.00
1480,4880.00
1481,4800.00
1482,4800.00
1483,4800.00
1484,4800.00
1485,4880.00
1486,4800.00
1487,4720.00
1488,4720.00
1489,4800.00
1490,4800.00
1491,4800.00
1492,4640.00
1493,4720.00
1494,4720.00
1495,4800.00
1496,4800.00
1497,-1360.00
1498,640.00
1499,160.00
1500,0.00
1501,0.00
1502,-80.00
1503,-80.00
1504,-160.00
1505,-80.00
1506,0.00
1507,-160.00
1508,-80.00
1509,0.00
1510,-80.00
1511,0.00
1512,0.00
1513,-80.00
1514,-80.00
1515,0.00
1516,0.00
1517,0.00
1518,0.00
1519,0.00
1520,0.00
1521,0.00
1522,2240.00
1523,4080.00
1524,4640.00
1525,4800.00
1526,4800.00
1527,4800.00
1528,4800.00
1529,4720.00
1530,4720.00
1531,4720.00
1532,4720.00
1533,4800.00
1534,4720.00
1535,4880.00
1536,4800.00
1537,4800.00
1538,4800.00
1539,4800.00
1540,4800.00
1541,4800.00
1542,4720.00
1543,4720.00
1544,4800.00
1545,4720.00
1546,4800.00
1547,4720.00
1548,4640.00
1549,4800.00
1550,4800.00
1551,4800.00
1552,4800.00
1553,4800.00
1554,4880.00
1555,4880.00
1556,4800.00
1557,4880.00
1558,4800.00
1559,4800.00
1560,4720.00
1561,4720.00
1562,4880.00
1563,4720.00
1564,4880.00
1565,4800.00
1566,4800.00
1567,4800.00
1568,4720.00
1569,4720.00
1570,4800.00
1571,4800.00
1572,4720.00
1573,4800.00
1574,4800.00
1575,4880.00
1576,4800.00
1577,4800.00
1578,4800.00
1579,4720.00
1580,4720.00
1581,4720.00
1582,4720.00
1583,4640.00
1584,4880.00
1585,4720.00
1586,4720.00
1587,4720.00
1588,4640.00
1589,4720.00
1590,4880.00
1591,4800.00
1592,4800.00
1593,4720.00
1594,4720.00
1595,4800.00
1596,4800.00
1597,4800.00
1598,4800.00
1599,4800.00
1600,4880.00
1601,4720.00
1602,4640.00
1603,4880.00
1604,4720.00
1605,4720.00
1606,4800.00
1607,4880.00
1608,4720.00
1609,4720.00
1610,4720.00
1611,4800.00
1612,4880.00
1613,4720.00
1614,4720.00
1615,4720.00
1616,4800.00
1617,4800.00
1618,4720.00
1619,4720.00
