floppy_drive/images/data timing/005_data_line_2.5Msps.CSV

Channel			  :,CH2
Frequency			  :,F=377.2kHz
Period 			  :,T=  ?
PK-PK				  :,Vpp=5.680V
Average			  :,V=2.649V
Vertical pos		  :,-4000.00mV
Probe attenuation	  :,10X
Voltage per ADC value:,80.00mV
Time interval		  :,0.40uS

index,CH2_Voltage(mV)
0,4800.00
1,4800.00
2,4800.00
3,4800.00
4,4800.00
5,4800.00
6,4720.00
7,4800.00
8,4880.00
9,4800.00
10,4800.00
11,4800.00
12,4800.00
13,4800.00
14,4800.00
15,4800.00
16,4800.00
17,4800.00
18,4800.00
19,4800.00
20,4800.00
21,4880.00
22,4720.00
23,4800.00
24,4800.00
25,4720.00
26,4800.00
27,4800.00
28,4800.00
29,4800.00
30,4880.00
31,4800.00
32,4800.00
33,4800.00
34,4800.00
35,4800.00
36,4800.00
37,4800.00
38,4800.00
39,4800.00
40,4800.00
41,4800.00
42,4800.00
43,4800.00
44,4800.00
45,4720.00
46,4800.00
47,4800.00
48,4800.00
49,4800.00
50,4800.00
51,4880.00
52,4800.00
53,4800.00
54,4880.00
55,4800.00
56,4800.00
57,4800.00
58,4800.00
59,4800.00
60,4800.00
61,4800.00
62,4800.00
63,4880.00
64,4800.00
65,4800.00
66,4800.00
67,4800.00
68,4800.00
69,4800.00
70,4800.00
71,4880.00
72,4800.00
73,4800.00
74,4880.00
75,4800.00
76,4800.00
77,4880.00
78,4800.00
79,4800.00
80,4800.00
81,4800.00
82,4800.00
83,4800.00
84,4800.00
85,4800.00
86,4720.00
87,4800.00
88,4800.00
89,4800.00
90,4800.00
91,4800.00
92,4800.00
93,4880.00
94,4800.00
95,4800.00
96,4800.00
97,4800.00
98,4800.00
99,4800.00
100,4880.00
101,4880.00
102,4800.00
103,4800.00
104,4800.00
105,4800.00
106,4800.00
107,4800.00
108,4800.00
109,4880.00
110,4800.00
111,4800.00
112,4800.00
113,4800.00
114,4800.00
115,4800.00
116,4800.00
117,4800.00
118,4800.00
119,4800.00
120,4800.00
121,4800.00
122,4800.00
123,4800.00
124,4800.00
125,4800.00
126,4880.00
127,4720.00
128,4800.00
129,4800.00
130,4800.00
131,4800.00
132,4800.00
133,4800.00
134,4800.00
135,4800.00
136,4800.00
137,4800.00
138,4800.00
139,4800.00
140,4800.00
141,4800.00
142,4800.00
143,4800.00
144,4880.00
145,4800.00
146,4800.00
147,4800.00
148,4720.00
149,4800.00
150,4800.00
151,4800.00
152,4800.00
153,4800.00
154,4880.00
155,4800.00
156,4720.00
157,4800.00
158,4800.00
159,4880.00
160,4880.00
161,4800.00
162,4800.00
163,4800.00
164,4800.00
165,4800.00
166,4800.00
167,4800.00
168,4800.00
169,4880.00
170,4800.00
171,4800.00
172,4800.00
173,4880.00
174,4800.00
175,4800.00
176,4800.00
177,4720.00
178,4800.00
179,4800.00
180,4800.00
181,4800.00
182,4800.00
183,4800.00
184,4800.00
185,4800.00
186,4800.00
187,4800.00
188,4800.00
189,4800.00
190,4800.00
191,4800.00
192,4800.00
193,4720.00
194,4800.00
195,4800.00
196,4800.00
197,4800.00
198,4800.00
199,4800.00
200,4720.00
201,4800.00
202,4800.00
203,4800.00
204,4800.00
205,4800.00
206,4800.00
207,4800.00
208,4720.00
209,4800.00
210,4800.00
211,4800.00
212,4720.00
213,4720.00
214,4800.00
215,4800.00
216,4800.00
217,4800.00
218,4800.00
219,4800.00
220,4800.00
221,4880.00
222,4880.00
223,4800.00
224,4800.00
225,4800.00
226,4800.00
227,4800.00
228,4800.00
229,4800.00
230,4800.00
231,4880.00
232,4800.00
233,4800.00
234,4800.00
235,4800.00
236,4800.00
237,4800.00
238,4800.00
239,4800.00
240,4800.00
241,4800.00
242,4800.00
243,4800.00
244,4800.00
245,4880.00
246,4800.00
247,4800.00
248,4800.00
249,4800.00
250,4800.00
251,4800.00
252,4800.00
253,4880.00
254,4880.00
255,4800.00
256,4800.00
257,4800.00
258,4880.00
259,4800.00
260,4880.00
261,4880.00
262,4800.00
263,4800.00
264,4800.00
265,4800.00
266,4800.00
267,4800.00
268,4800.00
269,4800.00
270,4800.00
271,4800.00
272,4720.00
273,4800.00
274,4720.00
275,4800.00
276,4800.00
277,4800.00
278,4800.00
279,4800.00
280,4800.00
281,4800.00
282,4800.00
283,4800.00
284,4800.00
285,4800.00
286,4800.00
287,4800.00
288,4800.00
289,4800.00
290,4800.00
291,4800.00
292,4800.00
293,4880.00
294,4800.00
295,4800.00
296,4800.00
297,4800.00
298,4880.00
299,4800.00
300,4800.00
301,4800.00
302,4800.00
303,4800.00
304,4800.00
305,4800.00
306,4800.00
307,4880.00
308,4800.00
309,4800.00
310,4800.00
311,4880.00
312,4800.00
313,4720.00
314,4800.00
315,4800.00
316,4800.00
317,4800.00
318,4720.00
319,4800.00
320,4880.00
321,4800.00
322,4800.00
323,4720.00
324,4800.00
325,4800.00
326,4800.00
327,4800.00
328,4800.00
329,4800.00
330,4800.00
331,4800.00
332,4800.00
333,4800.00
334,4800.00
335,4800.00
336,4880.00
337,4800.00
338,4800.00
339,4800.00
340,4800.00
341,4800.00
342,4800.00
343,4800.00
344,4720.00
345,4800.00
346,4800.00
347,4800.00
348,4800.00
349,4800.00
350,4880.00
351,4800.00
352,4800.00
353,4800.00
354,4800.00
355,4800.00
356,4800.00
357,4800.00
358,4720.00
359,4800.00
360,4800.00
361,4880.00
362,4800.00
363,4880.00
364,4800.00
365,4800.00
366,4800.00
367,4800.00
368,4800.00
369,4880.00
370,4880.00
371,4800.00
372,4800.00
373,4800.00
374,4800.00
375,4800.00
376,4800.00
377,4800.00
378,4800.00
379,4800.00
380,4880.00
381,4800.00
382,4800.00
383,4800.00
384,4800.00
385,4800.00
386,4800.00
387,4800.00
388,4800.00
389,4720.00
390,4800.00
391,4800.00
392,4800.00
393,4800.00
394,4720.00
395,4800.00
396,4800.00
397,4800.00
398,4800.00
399,4800.00
400,4800.00
401,4800.00
402,4800.00
403,4800.00
404,4800.00
405,4800.00
406,4800.00
407,4800.00
408,4880.00
409,4800.00
410,4800.00
411,4800.00
412,4800.00
413,4800.00
414,4800.00
415,4800.00
416,4800.00
417,4800.00
418,4800.00
419,4800.00
420,4880.00
421,4800.00
422,4800.00
423,4800.00
424,4800.00
425,4800.00
426,4800.00
427,4800.00
428,4800.00
429,4720.00
430,4800.00
431,4800.00
432,4720.00
433,4800.00
434,4800.00
435,4800.00
436,4800.00
437,4800.00
438,4800.00
439,4800.00
440,4880.00
441,4880.00
442,4800.00
443,4800.00
444,4800.00
445,4800.00
446,4800.00
447,4800.00
448,4800.00
449,4800.00
450,4800.00
451,4800.00
452,4800.00
453,4880.00
454,4800.00
455,4800.00
456,4800.00
457,4880.00
458,4800.00
459,4800.00
460,4800.00
461,4800.00
462,4880.00
463,4800.00
464,4800.00
465,4800.00
466,4800.00
467,4720.00
468,4720.00
469,4800.00
470,4720.00
471,4800.00
472,4800.00
473,4880.00
474,4800.00
475,4800.00
476,4800.00
477,4800.00
478,4800.00
479,4720.00
480,4800.00
481,4800.00
482,4720.00
483,4800.00
484,4800.00
485,4800.00
486,4880.00
487,4800.00
488,4800.00
489,4800.00
490,4800.00
491,4800.00
492,4880.00
493,4800.00
494,4800.00
495,4800.00
496,4800.00
497,4880.00
498,4800.00
499,4800.00
500,4800.00
501,4800.00
502,4800.00
503,4800.00
504,4880.00
505,4800.00
506,4880.00
507,4800.00
508,4800.00
509,4800.00
510,4800.00
511,4800.00
512,4800.00
513,4800.00
514,4800.00
515,4800.00
516,4800.00
517,4800.00
518,4800.00
519,4800.00
520,4800.00
521,4800.00
522,4880.00
523,4800.00
524,4880.00
525,4800.00
526,4720.00
527,4800.00
528,4880.00
529,4800.00
530,4800.00
531,4800.00
532,4800.00
533,4720.00
534,4800.00
535,4800.00
536,4800.00
537,4880.00
538,4800.00
539,4800.00
540,4800.00
541,4800.00
542,4800.00
543,4800.00
544,4800.00
545,4800.00
546,4800.00
547,4800.00
548,4800.00
549,4800.00
550,4800.00
551,4800.00
552,4800.00
553,4720.00
554,4800.00
555,4720.00
556,4800.00
557,4800.00
558,4800.00
559,4800.00
560,4800.00
561,4800.00
562,4800.00
563,4800.00
564,4800.00
565,4800.00
566,4800.00
567,4800.00
568,4880.00
569,4800.00
570,4800.00
571,4800.00
572,4800.00
573,4800.00
574,4800.00
575,4800.00
576,4800.00
577,4800.00
578,4800.00
579,4800.00
580,4800.00
581,4800.00
582,4880.00
583,4800.00
584,4880.00
585,4800.00
586,4800.00
587,4800.00
588,4800.00
589,4800.00
590,4800.00
591,4800.00
592,4800.00
593,4800.00
594,4960.00
595,4720.00
596,4800.00
597,4800.00
598,4800.00
599,4800.00
600,4800.00
601,4800.00
602,4800.00
603,4800.00
604,4800.00
605,4800.00
606,4800.00
607,4800.00
608,4800.00
609,4800.00
610,4800.00
611,4800.00
612,4800.00
613,4800.00
614,4800.00
615,4800.00
616,4800.00
617,4800.00
618,4800.00
619,4800.00
620,4800.00
621,4800.00
622,4800.00
623,4800.00
624,4800.00
625,4800.00
626,4800.00
627,4800.00
628,4800.00
629,4800.00
630,4800.00
631,4640.00
632,4800.00
633,4800.00
634,4800.00
635,4800.00
636,4800.00
637,4800.00
638,4800.00
639,4800.00
640,4800.00
641,4880.00
642,4800.00
643,4800.00
644,4800.00
645,4720.00
646,4800.00
647,4800.00
648,4800.00
649,4800.00
650,4800.00
651,4800.00
652,4880.00
653,4800.00
654,4800.00
655,4800.00
656,4800.00
657,4800.00
658,4800.00
659,4800.00
660,4800.00
661,4800.00
662,4880.00
663,4800.00
664,4800.00
665,4800.00
666,4800.00
667,4800.00
668,4800.00
669,4800.00
670,4800.00
671,4800.00
672,4800.00
673,4800.00
674,4800.00
675,4800.00
676,4800.00
677,4880.00
678,4800.00
679,4800.00
680,4800.00
681,4800.00
682,4880.00
683,4800.00
684,4800.00
685,4800.00
686,4880.00
687,4800.00
688,4800.00
689,4800.00
690,4800.00
691,4800.00
692,4800.00
693,4800.00
694,4800.00
695,4800.00
696,4800.00
697,4800.00
698,4800.00
699,4800.00
700,4800.00
701,4880.00
702,4800.00
703,4800.00
704,4880.00
705,4880.00
706,4800.00
707,4800.00
708,4800.00
709,4800.00
710,4720.00
711,4800.00
712,4800.00
713,4800.00
714,4800.00
715,4800.00
716,4800.00
717,4800.00
718,4800.00
719,4800.00
720,4800.00
721,4800.00
722,4800.00
723,4800.00
724,4880.00
725,4800.00
726,4800.00
727,4800.00
728,4800.00
729,4800.00
730,4800.00
731,4800.00
732,4880.00
733,4800.00
734,4800.00
735,4880.00
736,4800.00
737,4800.00
738,4800.00
739,4800.00
740,4800.00
741,4800.00
742,4800.00
743,4800.00
744,4720.00
745,4800.00
746,4800.00
747,4800.00
748,4800.00
749,4800.00
750,4800.00
751,4800.00
752,4800.00
753,4800.00
754,4800.00
755,4800.00
756,4800.00
757,4800.00
758,4800.00
759,4800.00
760,4800.00
761,4800.00
762,4880.00
763,4800.00
764,4800.00
765,4800.00
766,4800.00
767,4800.00
768,4800.00
769,4880.00
770,4800.00
771,4800.00
772,4800.00
773,4800.00
774,4800.00
775,4720.00
776,4720.00
777,4880.00
778,4720.00
779,4880.00
780,4800.00
781,4880.00
782,4800.00
783,4800.00
784,4880.00
785,4720.00
786,4800.00
787,4800.00
788,4800.00
789,4800.00
790,4800.00
791,4800.00
792,4800.00
793,4800.00
794,4800.00
795,4800.00
796,4800.00
797,4800.00
798,4800.00
799,4800.00
800,4880.00
801,4800.00
802,4800.00
803,4800.00
804,4800.00
805,4800.00
806,4800.00
807,4800.00
808,4960.00
809,4720.00
810,4800.00
811,4800.00
812,4800.00
813,4800.00
814,4800.00
815,4880.00
816,4800.00
817,4800.00
818,4720.00
819,4880.00
820,4800.00
821,4800.00
822,4880.00
823,4800.00
824,4800.00
825,4800.00
826,4800.00
827,4800.00
828,4800.00
829,4800.00
830,4800.00
831,4800.00
832,4800.00
833,4800.00
834,4880.00
835,4800.00
836,4800.00
837,4800.00
838,4880.00
839,4800.00
840,4800.00
841,4800.00
842,4800.00
843,4800.00
844,4800.00
845,4800.00
846,4800.00
847,4800.00
848,4800.00
849,4800.00
850,4800.00
851,4800.00
852,4800.00
853,4800.00
854,4800.00
855,4800.00
856,4880.00
857,4800.00
858,4800.00
859,4800.00
860,4800.00
861,4720.00
862,4800.00
863,4800.00
864,4800.00
865,4800.00
866,4800.00
867,4800.00
868,4800.00
869,4800.00
870,4800.00
871,4800.00
872,4800.00
873,4800.00
874,4800.00
875,4800.00
876,4800.00
877,4800.00
878,4880.00
879,4800.00
880,4800.00
881,4800.00
882,4800.00
883,4800.00
884,4880.00
885,4800.00
886,4800.00
887,4800.00
888,4800.00
889,4800.00
890,4800.00
891,4800.00
892,4800.00
893,4800.00
894,4880.00
895,4720.00
896,4800.00
897,4800.00
898,4800.00
899,4880.00
900,4800.00
901,4800.00
902,4800.00
903,4800.00
904,4800.00
905,4720.00
906,4800.00
907,4800.00
908,4800.00
909,4720.00
910,4880.00
911,4800.00
912,4880.00
913,4800.00
914,4880.00
915,4880.00
916,4800.00
917,4800.00
918,4800.00
919,4800.00
920,4800.00
921,4720.00
922,4800.00
923,4800.00
924,4800.00
925,4880.00
926,4800.00
927,4800.00
928,4880.00
929,4800.00
930,4800.00
931,4800.00
932,4800.00
933,4800.00
934,4800.00
935,4880.00
936,4800.00
937,4800.00
938,4800.00
939,4800.00
940,4800.00
941,4880.00
942,4800.00
943,4800.00
944,4800.00
945,4800.00
946,4880.00
947,4800.00
948,4800.00
949,4800.00
950,4800.00
951,4800.00
952,4800.00
953,4800.00
954,4800.00
955,4800.00
956,4800.00
957,4800.00
958,4800.00
959,4800.00
960,4800.00
961,4800.00
962,4800.00
963,4800.00
964,4800.00
965,4800.00
966,4800.00
967,4800.00
968,4800.00
969,4800.00
970,4800.00
971,4800.00
972,4800.00
973,4720.00
974,4800.00
975,4800.00
976,4800.00
977,4880.00
978,4800.00
979,4800.00
980,4720.00
981,4800.00
982,4800.00
983,4880.00
984,4800.00
985,4800.00
986,4800.00
987,4720.00
988,4720.00
989,4880.00
990,4800.00
991,4800.00
992,4800.00
993,4800.00
994,4800.00
995,4800.00
996,4800.00
997,4800.00
998,4800.00
999,4800.00
1000,4880.00
1001,4800.00
1002,4720.00
1003,4800.00
1004,4880.00
1005,4800.00
1006,4800.00
1007,4800.00
1008,4800.00
1009,4800.00
1010,4800.00
1011,4800.00
1012,4800.00
1013,4800.00
1014,4800.00
1015,4800.00
1016,4800.00
1017,4800.00
1018,4640.00
1019,4800.00
1020,4800.00
1021,4800.00
1022,4800.00
1023,4800.00
1024,4800.00
1025,4800.00
1026,4800.00
1027,4800.00
1028,4800.00
1029,4800.00
1030,4800.00
1031,4800.00
1032,4800.00
1033,4800.00
1034,4800.00
1035,4800.00
1036,4880.00
1037,4800.00
1038,4800.00
1039,4800.00
1040,4800.00
1041,4800.00
1042,4800.00
1043,4800.00
1044,4800.00
1045,4800.00
1046,4800.00
1047,4880.00
1048,4800.00
1049,4800.00
1050,4800.00
1051,4800.00
1052,4800.00
1053,4800.00
1054,4800.00
1055,4800.00
1056,4800.00
1057,4720.00
1058,4800.00
1059,4720.00
1060,4800.00
1061,4800.00
1062,4800.00
1063,4880.00
1064,4800.00
1065,4800.00
1066,4800.00
1067,4800.00
1068,4880.00
1069,4800.00
1070,4800.00
1071,4800.00
1072,4800.00
1073,4800.00
1074,4800.00
1075,4800.00
1076,4800.00
1077,4880.00
1078,4800.00
1079,4880.00
1080,4880.00
1081,4880.00
1082,4880.00
1083,4800.00
1084,4800.00
1085,4800.00
1086,4800.00
1087,4800.00
1088,4800.00
1089,4800.00
1090,0.00
1091,160.00
1092,80.00
1093,4800.00
1094,4800.00
1095,4800.00
1096,4800.00
1097,4800.00
1098,4800.00
1099,4800.00
1100,4880.00
1101,4800.00
1102,4800.00
1103,4800.00
1104,0.00
1105,160.00
1106,0.00
1107,4800.00
1108,4800.00
1109,4880.00
1110,4880.00
1111,4800.00
1112,4800.00
1113,4720.00
1114,4800.00
1115,4880.00
1116,4960.00
1117,4800.00
1118,4800.00
1119,4800.00
1120,4960.00
1121,4880.00
1122,4800.00
1123,4800.00
1124,4800.00
1125,4800.00
1126,4800.00
1127,4800.00
1128,4800.00
1129,4880.00
1130,4800.00
1131,4800.00
1132,4800.00
1133,4800.00
1134,160.00
1135,0.00
1136,4800.00
1137,4800.00
1138,4800.00
1139,4800.00
1140,4880.00
1141,4800.00
1142,0.00
1143,80.00
1144,4800.00
1145,4800.00
1146,4800.00
1147,4800.00
1148,4800.00
1149,4800.00
1150,4800.00
1151,4880.00
1152,0.00
1153,80.00
1154,4720.00
1155,4800.00
1156,4800.00
1157,4800.00
1158,4800.00
1159,4720.00
1160,4800.00
1161,4800.00
1162,4800.00
1163,160.00
1164,0.00
1165,0.00
1166,4800.00
1167,4800.00
1168,4800.00
1169,4800.00
1170,4800.00
1171,4800.00
1172,0.00
1173,0.00
1174,4640.00
1175,4720.00
1176,4800.00
1177,4720.00
1178,4800.00
1179,4800.00
1180,4800.00
1181,0.00
1182,80.00
1183,80.00
1184,4800.00
1185,4800.00
1186,4800.00
1187,4880.00
1188,4800.00
1189,160.00
1190,0.00
1191,4800.00
1192,4800.00
1193,4880.00
1194,4880.00
1195,4880.00
1196,4880.00
1197,4800.00
1198,0.00
1199,160.00
1200,4800.00
1201,4800.00
1202,4880.00
1203,160.00
1204,80.00
1205,80.00
1206,4800.00
1207,4800.00
1208,4800.00
1209,4800.00
1210,4800.00
1211,4800.00
1212,4800.00
1213,4800.00
1214,4880.00
1215,4800.00
1216,4800.00
1217,4800.00
1218,4800.00
1219,4800.00
1220,4800.00
1221,0.00
1222,80.00
1223,0.00
1224,4800.00
1225,4880.00
1226,4800.00
1227,4720.00
1228,4800.00
1229,4880.00
1230,4800.00
1231,80.00
1232,0.00
1233,3920.00
1234,4800.00
1235,4880.00
1236,4800.00
1237,4800.00
1238,4800.00
1239,4800.00
1240,4800.00
1241,4800.00
1242,4800.00
1243,4800.00
1244,4800.00
1245,4800.00
1246,4800.00
1247,4800.00
1248,4800.00
1249,4800.00
1250,4800.00
1251,4800.00
1252,4800.00
1253,4800.00
1254,80.00
1255,80.00
1256,4800.00
1257,4880.00
1258,4800.00
1259,4800.00
1260,4880.00
1261,4800.00
1262,4800.00
1263,4800.00
1264,4800.00
1265,4800.00
1266,4720.00
1267,4800.00
1268,4800.00
1269,4800.00
1270,4800.00
1271,80.00
1272,0.00
1273,4880.00
1274,4880.00
1275,4800.00
1276,4720.00
1277,4800.00
1278,0.00
1279,0.00
1280,2080.00
1281,4880.00
1282,4880.00
1283,4720.00
1284,0.00
1285,80.00
1286,4800.00
1287,4800.00
1288,4800.00
1289,4800.00
1290,4800.00
1291,4800.00
1292,4800.00
1293,4800.00
1294,4800.00
1295,4800.00
1296,4800.00
1297,4800.00
1298,4800.00
1299,4800.00
1300,4800.00
1301,4800.00
1302,4800.00
1303,4800.00
1304,4800.00
1305,4800.00
1306,4800.00
1307,4800.00
1308,4880.00
1309,4800.00
1310,4800.00
1311,4800.00
1312,4800.00
1313,4800.00
1314,4800.00
1315,0.00
1316,0.00
1317,80.00
1318,4880.00
1319,4800.00
1320,4720.00
1321,4800.00
1322,4800.00
1323,4800.00
1324,4800.00
1325,4800.00
1326,4800.00
1327,4800.00
1328,4800.00
1329,4320.00
1330,0.00
1331,80.00
1332,4800.00
1333,4800.00
1334,4800.00
1335,4800.00
1336,0.00
1337,160.00
1338,4880.00
1339,4800.00
1340,80.00
1341,0.00
1342,4800.00
1343,4800.00
1344,4800.00
1345,4800.00
1346,4800.00
1347,4800.00
1348,4880.00
1349,4800.00
1350,4800.00
1351,4800.00
1352,4800.00
1353,4800.00
1354,4800.00
1355,4800.00
1356,4800.00
1357,4800.00
1358,4800.00
1359,160.00
1360,80.00
1361,0.00
1362,4800.00
1363,4880.00
1364,4800.00
1365,0.00
1366,0.00
1367,4880.00
1368,4800.00
1369,4800.00
1370,4800.00
1371,0.00
1372,0.00
1373,3680.00
1374,4800.00
1375,4800.00
1376,4800.00
1377,4800.00
1378,80.00
1379,0.00
1380,0.00
1381,4800.00
1382,4800.00
1383,4880.00
1384,4800.00
1385,4800.00
1386,4800.00
1387,4800.00
1388,4800.00
1389,4800.00
1390,4800.00
1391,4800.00
1392,4800.00
1393,4800.00
1394,4800.00
1395,4720.00
1396,4800.00
1397,4720.00
1398,0.00
1399,80.00
1400,3680.00
1401,4800.00
1402,4800.00
1403,4800.00
1404,4800.00
1405,4800.00
1406,4800.00
1407,4800.00
1408,4800.00
1409,4800.00
1410,4800.00
1411,4880.00
1412,4800.00
1413,4880.00
1414,80.00
1415,0.00
1416,0.00
1417,4800.00
1418,4800.00
1419,4800.00
1420,4800.00
1421,4800.00
1422,4800.00
1423,4800.00
1424,4800.00
1425,4800.00
1426,4800.00
1427,4800.00
1428,4800.00
1429,4800.00
1430,4880.00
1431,4800.00
1432,4880.00
1433,4800.00
1434,4800.00
1435,4800.00
1436,80.00
1437,0.00
1438,4000.00
1439,4880.00
1440,4800.00
1441,4800.00
1442,4800.00
1443,4800.00
1444,4880.00
1445,0.00
1446,160.00
1447,4880.00
1448,4800.00
1449,4800.00
1450,4800.00
1451,4800.00
1452,4800.00
1453,4800.00
1454,160.00
1455,0.00
1456,0.00
1457,4800.00
1458,4800.00
1459,4800.00
1460,4800.00
1461,160.00
1462,80.00
1463,4320.00
1464,4800.00
1465,4800.00
1466,4800.00
1467,4800.00
1468,4800.00
1469,4800.00
1470,4800.00
1471,4880.00
1472,80.00
1473,160.00
1474,4800.00
1475,4880.00
1476,4880.00
1477,4880.00
1478,4880.00
1479,4800.00
1480,4800.00
1481,0.00
1482,80.00
1483,4800.00
1484,4800.00
1485,4800.00
1486,4720.00
1487,4800.00
1488,0.00
1489,80.00
1490,880.00
1491,4800.00
1492,4800.00
1493,4800.00
1494,4880.00
1495,0.00
1496,0.00
1497,160.00
1498,4800.00
1499,4880.00
1500,4800.00
1501,4800.00
1502,4800.00
1503,4800.00
1504,4800.00
1505,4800.00
1506,4800.00
1507,4800.00
1508,4800.00
1509,4880.00
1510,4800.00
1511,4800.00
1512,4800.00
1513,0.00
1514,80.00
1515,80.00
1516,4800.00
1517,4800.00
1518,4800.00
1519,4800.00
1520,4800.00
1521,4800.00
1522,4800.00
1523,4800.00
1524,0.00
1525,0.00
1526,160.00
1527,4880.00
1528,4800.00
1529,4800.00
1530,4800.00
1531,4800.00
1532,-80.00
1533,80.00
1534,4640.00
1535,4880.00
1536,4880.00
1537,4800.00
1538,4800.00
1539,4800.00
1540,4800.00
1541,4800.00
1542,4800.00
1543,4880.00
1544,4880.00
1545,160.00
1546,160.00
1547,4800.00
1548,4800.00
1549,4800.00
1550,4800.00
1551,4800.00
1552,4800.00
1553,4800.00
1554,4800.00
1555,4800.00
1556,4880.00
1557,4880.00
1558,4800.00
1559,4800.00
1560,4800.00
1561,4800.00
1562,4800.00
1563,4800.00
1564,4800.00
1565,4800.00
1566,4800.00
1567,4800.00
1568,4800.00
1569,4800.00
1570,4800.00
1571,4800.00
1572,4720.00
1573,0.00
1574,0.00
1575,4800.00
1576,4800.00
1577,4800.00
1578,4800.00
1579,4800.00
1580,4800.00
1581,4800.00
1582,4800.00
1583,80.00
1584,0.00
1585,4800.00
1586,4880.00
1587,4800.00
1588,4800.00
1589,4800.00
1590,4800.00
1591,4720.00
1592,4800.00
1593,4800.00
1594,4800.00
1595,4800.00
1596,0.00
1597,80.00
1598,80.00
1599,4880.00
1600,4800.00
1601,4800.00
1602,0.00
1603,0.00
1604,4320.00
1605,4800.00
1606,4800.00
1607,4880.00
1608,4800.00
1609,0.00
1610,80.00
1611,80.00
1612,4800.00
1613,4800.00
1614,4800.00
1615,4800.00
1616,4800.00
1617,4800.00
1618,4800.00
1619,4800.00
1620,4880.00
1621,4800.00
1622,4800.00
