floppy_drive/images/data timing/006_data_line_1.25Msps.CSV

Channel			  :,CH2
Frequency			  :,F=98.07kHz
Period 			  :,T=  ?
PK-PK				  :,Vpp=5.680V
Average			  :,V=2.461V
Vertical pos		  :,-4000.00mV
Probe attenuation	  :,10X
Voltage per ADC value:,80.00mV
Time interval		  :,0.80uS

index,CH2_Voltage(mV)
0,4800.00
1,4800.00
2,4800.00
3,4800.00
4,4800.00
5,4720.00
6,4880.00
7,4800.00
8,4800.00
9,4800.00
10,4800.00
11,4800.00
12,4800.00
13,4800.00
14,4800.00
15,4800.00
16,4800.00
17,4800.00
18,4800.00
19,4800.00
20,4880.00
21,4800.00
22,4720.00
23,4800.00
24,4800.00
25,4800.00
26,4800.00
27,4720.00
28,4800.00
29,4800.00
30,4800.00
31,4800.00
32,4800.00
33,4800.00
34,4800.00
35,4800.00
36,4800.00
37,4800.00
38,4800.00
39,4800.00
40,4800.00
41,4800.00
42,4800.00
43,4800.00
44,4800.00
45,4800.00
46,4800.00
47,4800.00
48,4960.00
49,4800.00
50,4800.00
51,4880.00
52,4800.00
53,4800.00
54,4800.00
55,4800.00
56,4800.00
57,4800.00
58,4800.00
59,4800.00
60,4800.00
61,4800.00
62,4800.00
63,4880.00
64,4640.00
65,4800.00
66,4880.00
67,4800.00
68,4800.00
69,4720.00
70,4800.00
71,4800.00
72,4800.00
73,4880.00
74,4880.00
75,4880.00
76,4800.00
77,4800.00
78,4800.00
79,4800.00
80,4720.00
81,4800.00
82,4800.00
83,4800.00
84,4800.00
85,4800.00
86,4800.00
87,4800.00
88,4800.00
89,4800.00
90,4800.00
91,4800.00
92,4800.00
93,4800.00
94,4800.00
95,4800.00
96,4880.00
97,4800.00
98,4800.00
99,4800.00
100,4800.00
101,4800.00
102,4800.00
103,4800.00
104,4800.00
105,4800.00
106,4800.00
107,4800.00
108,4800.00
109,4720.00
110,4800.00
111,4800.00
112,4800.00
113,4720.00
114,4800.00
115,4800.00
116,4720.00
117,4800.00
118,4800.00
119,4800.00
120,4720.00
121,4800.00
122,4800.00
123,4800.00
124,4800.00
125,4800.00
126,4800.00
127,4800.00
128,4800.00
129,4880.00
130,4800.00
131,4800.00
132,4800.00
133,4800.00
134,4800.00
135,4800.00
136,4800.00
137,4720.00
138,4880.00
139,4800.00
140,4800.00
141,4800.00
142,4800.00
143,4800.00
144,4880.00
145,4800.00
146,4880.00
147,4800.00
148,4800.00
149,4880.00
150,4880.00
151,4800.00
152,4800.00
153,4800.00
154,4800.00
155,4800.00
156,4800.00
157,4720.00
158,4800.00
159,4800.00
160,4800.00
161,4800.00
162,4800.00
163,4800.00
164,4800.00
165,4720.00
166,4800.00
167,4800.00
168,4800.00
169,4800.00
170,4800.00
171,4800.00
172,4880.00
173,4800.00
174,4800.00
175,4800.00
176,4800.00
177,4800.00
178,4800.00
179,4800.00
180,4800.00
181,4800.00
182,4720.00
183,4800.00
184,4800.00
185,4800.00
186,4880.00
187,4800.00
188,4800.00
189,4800.00
190,4800.00
191,4800.00
192,4800.00
193,4800.00
194,4800.00
195,4800.00
196,4800.00
197,4800.00
198,4800.00
199,4720.00
200,4800.00
201,4800.00
202,4800.00
203,4720.00
204,4800.00
205,4800.00
206,4800.00
207,4800.00
208,4800.00
209,4800.00
210,4800.00
211,4720.00
212,4800.00
213,4800.00
214,4800.00
215,4800.00
216,4800.00
217,4880.00
218,4720.00
219,4800.00
220,4800.00
221,4800.00
222,4800.00
223,4800.00
224,4800.00
225,4800.00
226,4800.00
227,4880.00
228,4880.00
229,4800.00
230,4800.00
231,4800.00
232,4800.00
233,4800.00
234,4880.00
235,4640.00
236,4800.00
237,4800.00
238,4880.00
239,4800.00
240,4880.00
241,4720.00
242,4800.00
243,4800.00
244,4800.00
245,4800.00
246,4800.00
247,4800.00
248,4880.00
249,4880.00
250,4880.00
251,4720.00
252,4720.00
253,4800.00
254,4800.00
255,4720.00
256,4800.00
257,4800.00
258,4800.00
259,4720.00
260,4880.00
261,4800.00
262,4800.00
263,4800.00
264,4800.00
265,4800.00
266,4800.00
267,4880.00
268,4880.00
269,4880.00
270,4880.00
271,4800.00
272,4800.00
273,4880.00
274,4800.00
275,4800.00
276,4800.00
277,4880.00
278,4800.00
279,4800.00
280,4720.00
281,4800.00
282,4800.00
283,4800.00
284,4800.00
285,4800.00
286,4880.00
287,4800.00
288,4800.00
289,4800.00
290,4880.00
291,4720.00
292,4800.00
293,4800.00
294,4800.00
295,4880.00
296,4800.00
297,4720.00
298,4800.00
299,4800.00
300,4800.00
301,4800.00
302,4800.00
303,4800.00
304,4800.00
305,4800.00
306,4800.00
307,4800.00
308,4800.00
309,4800.00
310,4800.00
311,4800.00
312,4800.00
313,4800.00
314,4800.00
315,4880.00
316,4800.00
317,4800.00
318,4800.00
319,4800.00
320,4800.00
321,4800.00
322,4800.00
323,4800.00
324,4800.00
325,4800.00
326,4880.00
327,4800.00
328,4800.00
329,4800.00
330,4800.00
331,4800.00
332,4800.00
333,4880.00
334,4880.00
335,4800.00
336,4800.00
337,4880.00
338,4800.00
339,4800.00
340,4800.00
341,4800.00
342,4720.00
343,4800.00
344,4800.00
345,4800.00
346,4800.00
347,4880.00
348,4880.00
349,4800.00
350,4880.00
351,4800.00
352,4800.00
353,4800.00
354,4880.00
355,4800.00
356,4800.00
357,0.00
358,4800.00
359,4800.00
360,0.00
361,4800.00
362,4880.00
363,4880.00
364,0.00
365,4800.00
366,4800.00
367,4880.00
368,80.00
369,4880.00
370,4800.00
371,80.00
372,4720.00
373,4800.00
374,4800.00
375,4800.00
376,4800.00
377,0.00
378,4800.00
379,4800.00
380,4800.00
381,80.00
382,4880.00
383,4800.00
384,4800.00
385,0.00
386,4880.00
387,4800.00
388,0.00
389,0.00
390,4880.00
391,4800.00
392,0.00
393,160.00
394,4800.00
395,4800.00
396,80.00
397,4800.00
398,4720.00
399,4800.00
400,4800.00
401,4880.00
402,4800.00
403,4880.00
404,4800.00
405,4800.00
406,4880.00
407,80.00
408,4800.00
409,4800.00
410,4880.00
411,4800.00
412,4800.00
413,4880.00
414,4800.00
415,4800.00
416,0.00
417,4880.00
418,4800.00
419,4800.00
420,4800.00
421,4800.00
422,80.00
423,4800.00
424,4880.00
425,4880.00
426,4800.00
427,4800.00
428,4800.00
429,4800.00
430,4800.00
431,4800.00
432,4800.00
433,4800.00
434,0.00
435,4880.00
436,4800.00
437,4800.00
438,4800.00
439,4800.00
440,4800.00
441,80.00
442,4880.00
443,4800.00
444,4800.00
445,4800.00
446,4880.00
447,80.00
448,4800.00
449,4880.00
450,4800.00
451,4800.00
452,4800.00
453,4800.00
454,4800.00
455,0.00
456,4800.00
457,4800.00
458,4800.00
459,0.00
460,4800.00
461,4880.00
462,4800.00
463,4800.00
464,4800.00
465,4720.00
466,0.00
467,4800.00
468,4800.00
469,-480.00
470,-160.00
471,4880.00
472,4800.00
473,160.00
474,4800.00
475,4800.00
476,80.00
477,4720.00
478,4800.00
479,4880.00
480,4880.00
481,4800.00
482,4800.00
483,4800.00
484,4800.00
485,4880.00
486,4800.00
487,4800.00
488,4800.00
489,4800.00
490,4800.00
491,80.00
492,3760.00
493,4800.00
494,4800.00
495,4800.00
496,4720.00
497,4800.00
498,4720.00
499,4800.00
500,4800.00
501,4800.00
502,4800.00
503,4880.00
504,4800.00
505,80.00
506,4880.00
507,4800.00
508,4800.00
509,4800.00
510,4800.00
511,4800.00
512,4800.00
513,4880.00
514,0.00
515,0.00
516,4800.00
517,4880.00
518,4880.00
519,4800.00
520,0.00
521,4800.00
522,4800.00
523,4880.00
524,4800.00
525,4880.00
526,4800.00
527,4800.00
528,4880.00
529,4800.00
530,80.00
531,4800.00
532,4800.00
533,4800.00
534,4800.00
535,4800.00
536,4800.00
537,0.00
538,4800.00
539,4800.00
540,4800.00
541,80.00
542,4800.00
543,4800.00
544,4800.00
545,4800.00
546,4800.00
547,4800.00
548,4880.00
549,0.00
550,4960.00
551,4800.00
552,4880.00
553,4800.00
554,160.00
555,4800.00
556,4800.00
557,4800.00
558,80.00
559,4800.00
560,4800.00
561,0.00
562,4800.00
563,4800.00
564,4800.00
565,0.00
566,4480.00
567,4800.00
568,4800.00
569,4800.00
570,4800.00
571,4800.00
572,4800.00
573,4800.00
574,4800.00
575,80.00
576,4880.00
577,4800.00
578,4800.00
579,4880.00
580,4800.00
581,4800.00
582,4880.00
583,4880.00
584,160.00
585,4800.00
586,4800.00
587,4880.00
588,4240.00
589,80.00
590,4800.00
591,4800.00
592,4720.00
593,4800.00
594,4720.00
595,0.00
596,4720.00
597,4800.00
598,4800.00
599,4800.00
600,4800.00
601,4720.00
602,4800.00
603,4800.00
604,4800.00
605,4800.00
606,0.00
607,4400.00
608,4800.00
609,4800.00
610,0.00
611,4720.00
612,4800.00
613,-400.00
614,80.00
615,4800.00
616,4800.00
617,4800.00
618,4800.00
619,4800.00
620,4880.00
621,4800.00
622,4800.00
623,4640.00
624,4800.00
625,4800.00
626,160.00
627,4800.00
628,4800.00
629,4720.00
630,4800.00
631,4800.00
632,4800.00
633,4800.00
634,4800.00
635,4800.00
636,4800.00
637,4880.00
638,4800.00
639,4800.00
640,4880.00
641,4800.00
642,4800.00
643,4800.00
644,4800.00
645,2320.00
646,80.00
647,4800.00
648,4800.00
649,4800.00
650,4800.00
651,80.00
652,3200.00
653,4800.00
654,4800.00
655,4800.00
656,0.00
657,80.00
658,4800.00
659,4800.00
660,4800.00
661,4800.00
662,4800.00
663,4880.00
664,4800.00
665,0.00
666,4880.00
667,4640.00
668,80.00
669,4800.00
670,4800.00
671,4800.00
672,160.00
673,4880.00
674,4800.00
675,0.00
676,4720.00
677,4800.00
678,4800.00
679,4800.00
680,4800.00
681,4800.00
682,4800.00
683,4800.00
684,0.00
685,160.00
686,4800.00
687,4800.00
688,4800.00
689,80.00
690,4800.00
691,4800.00
692,4800.00
693,4800.00
694,4800.00
695,4800.00
696,4800.00
697,4800.00
698,4800.00
699,4800.00
700,80.00
701,4800.00
702,4800.00
703,4800.00
704,4800.00
705,4800.00
706,4800.00
707,4800.00
708,4800.00
709,0.00
710,4800.00
711,4800.00
712,4800.00
713,160.00
714,4800.00
715,4800.00
716,4800.00
717,4800.00
718,4800.00
719,4800.00
720,4800.00
721,4720.00
722,4800.00
723,80.00
724,4800.00
725,4800.00
726,4800.00
727,4800.00
728,4640.00
729,80.00
730,4720.00
731,4800.00
732,4800.00
733,0.00
734,4880.00
735,4800.00
736,4800.00
737,80.00
738,4800.00
739,4800.00
740,4800.00
741,4880.00
742,4880.00
743,4800.00
744,4800.00
745,4800.00
746,4800.00
747,4800.00
748,4800.00
749,4800.00
750,4800.00
751,4960.00
752,4800.00
753,4800.00
754,4800.00
755,4800.00
756,80.00
757,4880.00
758,4800.00
759,4800.00
760,0.00
761,2000.00
762,4880.00
763,4800.00
764,4800.00
765,4800.00
766,4800.00
767,4880.00
768,4800.00
769,4800.00
770,4880.00
771,4800.00
772,4800.00
773,4800.00
774,4800.00
775,4880.00
776,4800.00
777,4800.00
778,4880.00
779,4880.00
780,4800.00
781,80.00
782,4800.00
783,4800.00
784,4800.00
785,4880.00
786,4800.00
787,4800.00
788,4800.00
789,4800.00
790,4800.00
791,4800.00
792,4800.00
793,4720.00
794,4800.00
795,4800.00
796,4800.00
797,4720.00
798,4800.00
799,4800.00
800,4800.00
801,4720.00
802,4800.00
803,4880.00
804,4800.00
805,4800.00
806,4800.00
807,4720.00
808,80.00
809,4880.00
810,4880.00
811,0.00
812,4800.00
813,4800.00
814,4880.00
815,80.00
816,4320.00
817,4800.00
818,4800.00
819,4880.00
820,4720.00
821,4800.00
822,4800.00
823,4800.00
824,4800.00
825,4800.00
826,0.00
827,4800.00
828,4800.00
829,4800.00
830,4800.00
831,4880.00
832,4800.00
833,80.00
834,4880.00
835,4800.00
836,4800.00
837,80.00
838,4800.00
839,4800.00
840,80.00
841,0.00
842,4960.00
843,4800.00
844,4800.00
845,4800.00
846,4800.00
847,4800.00
848,4800.00
849,4800.00
850,80.00
851,4880.00
852,4800.00
853,4800.00
854,4800.00
855,4800.00
856,4800.00
857,160.00
858,4800.00
859,4800.00
860,0.00
861,4720.00
862,4800.00
863,4800.00
864,4800.00
865,4800.00
866,4800.00
867,4800.00
868,4800.00
869,160.00
870,4880.00
871,4720.00
872,4800.00
873,4880.00
874,0.00
875,4880.00
876,4800.00
877,4800.00
878,80.00
879,4800.00
880,4800.00
881,4800.00
882,4800.00
883,4800.00
884,4800.00
885,4800.00
886,4800.00
887,4800.00
888,80.00
889,4800.00
890,4880.00
891,4880.00
892,4800.00
893,4800.00
894,4800.00
895,4800.00
896,4800.00
897,4800.00
898,4800.00
899,0.00
900,4800.00
901,4800.00
902,4800.00
903,4800.00
904,4800.00
905,4800.00
906,4800.00
907,4800.00
908,4800.00
909,80.00
910,4640.00
911,4800.00
912,4800.00
913,80.00
914,4160.00
915,4800.00
916,4960.00
917,4800.00
918,4800.00
919,4800.00
920,4800.00
921,4800.00
922,0.00
923,4800.00
924,4800.00
925,4800.00
926,4800.00
927,4720.00
928,4800.00
929,4880.00
930,4800.00
931,80.00
932,4800.00
933,4880.00
934,4800.00
935,4800.00
936,4800.00
937,4800.00
938,4800.00
939,4800.00
940,4800.00
941,4720.00
942,4800.00
943,4800.00
944,0.00
945,4800.00
946,4800.00
947,4800.00
948,4800.00
949,0.00
950,4800.00
951,4800.00
952,0.00
953,4880.00
954,4800.00
955,0.00
956,0.00
957,4800.00
958,4800.00
959,4800.00
960,4800.00
961,4720.00
962,4720.00
963,4800.00
964,4880.00
965,4800.00
966,4800.00
967,80.00
968,4800.00
969,4800.00
970,4800.00
971,4880.00
972,4800.00
973,80.00
974,160.00
975,4800.00
976,4880.00
977,0.00
978,4800.00
979,4800.00
980,4800.00
981,0.00
982,4800.00
983,4800.00
984,4800.00
985,0.00
986,4800.00
987,4800.00
988,4800.00
989,4800.00
990,0.00
991,4800.00
992,4800.00
993,4800.00
994,4800.00
995,4800.00
996,4800.00
997,4800.00
998,4800.00
999,4800.00
1000,4800.00
1001,4800.00
1002,80.00
1003,4800.00
1004,4800.00
1005,4880.00
1006,4800.00
1007,4800.00
1008,80.00
1009,4720.00
1010,4800.00
1011,4800.00
1012,80.00
1013,80.00
1014,4800.00
1015,4800.00
1016,4800.00
1017,4720.00
1018,4800.00
1019,80.00
1020,4800.00
1021,4800.00
1022,4800.00
1023,4800.00
1024,4800.00
1025,4800.00
1026,4800.00
1027,4800.00
1028,4800.00
1029,4800.00
1030,4800.00
1031,4800.00
1032,80.00
1033,4800.00
1034,4800.00
1035,4800.00
1036,4800.00
1037,80.00
1038,4800.00
1039,4800.00
1040,4720.00
1041,4800.00
1042,4800.00
1043,4800.00
1044,4800.00
1045,4800.00
1046,4880.00
1047,80.00
1048,4800.00
1049,4800.00
1050,4800.00
1051,160.00
1052,4880.00
1053,4800.00
1054,4800.00
1055,0.00
1056,4800.00
1057,4800.00
1058,4800.00
1059,0.00
1060,4800.00
1061,4800.00
1062,0.00
1063,0.00
1064,4800.00
1065,4800.00
1066,4800.00
1067,4800.00
1068,4880.00
1069,4800.00
1070,0.00
1071,4800.00
1072,4800.00
1073,4800.00
1074,80.00
1075,4800.00
1076,4800.00
1077,4800.00
1078,4800.00
1079,4800.00
1080,4800.00
1081,80.00
1082,4560.00
1083,4800.00
1084,4800.00
1085,4800.00
1086,160.00
1087,4800.00
1088,4800.00
1089,4800.00
1090,4800.00
1091,0.00
1092,80.00
1093,4800.00
1094,4800.00
1095,0.00
1096,4800.00
1097,4800.00
1098,0.00
1099,80.00
1100,4800.00
1101,4800.00
1102,4800.00
1103,4800.00
1104,80.00
1105,4800.00
1106,4800.00
1107,4800.00
1108,160.00
1109,4800.00
1110,4880.00
1111,4720.00
1112,4880.00
1113,4800.00
1114,4800.00
1115,4800.00
1116,4800.00
1117,4800.00
1118,80.00
1119,4800.00
1120,4720.00
1121,0.00
1122,4800.00
1123,4800.00
1124,4800.00
1125,4800.00
1126,4800.00
1127,4800.00
1128,4800.00
1129,4880.00
1130,4880.00
1131,4800.00
1132,4800.00
1133,0.00
1134,4080.00
1135,4800.00
1136,4800.00
1137,4800.00
1138,4800.00
1139,4880.00
1140,4800.00
1141,4880.00
1142,4800.00
1143,0.00
1144,4880.00
1145,4880.00
1146,80.00
1147,80.00
1148,4800.00
1149,4640.00
1150,80.00
1151,4800.00
1152,4800.00
1153,0.00
1154,80.00
1155,4800.00
1156,4800.00
1157,0.00
1158,4800.00
1159,4800.00
1160,4720.00
1161,160.00
1162,4880.00
1163,4800.00
1164,4800.00
1165,4800.00
1166,4800.00
1167,4800.00
1168,4800.00
1169,4800.00
1170,4800.00
1171,4720.00
1172,80.00
1173,4800.00
1174,4800.00
1175,4800.00
1176,4800.00
1177,0.00
1178,4800.00
1179,4800.00
1180,80.00
1181,4800.00
1182,4800.00
1183,4880.00
1184,4800.00
1185,0.00
1186,80.00
1187,4800.00
1188,4800.00
1189,4800.00
1190,4800.00
1191,4800.00
1192,4800.00
1193,4800.00
1194,4800.00
1195,80.00
1196,3200.00
1197,4800.00
1198,4800.00
1199,4800.00
1200,4800.00
1201,4800.00
1202,4720.00
1203,0.00
1204,4800.00
1205,4800.00
1206,4800.00
1207,4800.00
1208,0.00
1209,4880.00
1210,4800.00
1211,80.00
1212,4800.00
1213,4800.00
1214,4800.00
1215,4800.00
1216,4800.00
1217,4800.00
1218,4800.00
1219,4800.00
1220,160.00
1221,4800.00
1222,4800.00
1223,4800.00
1224,80.00
1225,80.00
1226,4800.00
1227,4800.00
1228,4800.00
1229,4800.00
1230,80.00
1231,4800.00
1232,4800.00
1233,4800.00
1234,4800.00
1235,0.00
1236,4800.00
1237,4800.00
1238,4800.00
1239,4800.00
1240,4800.00
1241,4800.00
1242,4800.00
1243,0.00
1244,4800.00
1245,4800.00
1246,80.00
1247,1600.00
1248,4800.00
1249,4800.00
1250,4800.00
1251,4720.00
1252,4800.00
1253,4800.00
1254,4800.00
1255,4720.00
1256,4800.00
1257,80.00
1258,4800.00
1259,4800.00
1260,80.00
1261,4800.00
1262,4800.00
1263,4880.00
1264,4800.00
1265,4800.00
1266,4800.00
1267,80.00
1268,4800.00
1269,4720.00
1270,80.00
1271,4880.00
1272,4800.00
1273,4800.00
1274,4800.00
1275,4800.00
1276,4880.00
1277,4800.00
1278,0.00
1279,4800.00
1280,4800.00
1281,4800.00
1282,160.00
1283,4560.00
1284,4800.00
1285,4880.00
1286,4800.00
1287,4880.00
1288,0.00
1289,0.00
1290,4880.00
1291,4800.00
1292,4800.00
1293,4800.00
1294,4800.00
1295,80.00
1296,4800.00
1297,4800.00
1298,0.00
1299,80.00
1300,4800.00
1301,4800.00
1302,4800.00
1303,80.00
1304,4800.00
1305,4800.00
1306,4800.00
1307,4800.00
1308,0.00
1309,4800.00
1310,4800.00
1311,4800.00
1312,4800.00
1313,4800.00
1314,4800.00
1315,0.00
1316,4880.00
1317,4880.00
1318,4800.00
1319,0.00
1320,4800.00
1321,4800.00
1322,4800.00
1323,4800.00
1324,0.00
1325,0.00
1326,4800.00
1327,4880.00
1328,80.00
1329,4800.00
1330,4640.00
1331,0.00
1332,80.00
1333,4880.00
1334,4800.00
1335,4800.00
1336,4800.00
1337,4800.00
1338,4800.00
1339,4800.00
1340,4800.00
1341,4800.00
1342,80.00
1343,4800.00
1344,4800.00
1345,4800.00
1346,4800.00
1347,0.00
1348,4640.00
1349,4800.00
1350,4800.00
1351,4800.00
1352,0.00
1353,160.00
1354,4800.00
1355,4800.00
1356,4800.00
1357,4880.00
1358,4800.00
1359,80.00
1360,4800.00
1361,4800.00
1362,4800.00
1363,4720.00
1364,4800.00
1365,4800.00
1366,4800.00
1367,4720.00
1368,4800.00
1369,4800.00
1370,4720.00
1371,4800.00
1372,4800.00
1373,4800.00
1374,160.00
1375,3920.00
1376,4800.00
1377,4800.00
1378,4800.00
1379,4800.00
1380,4800.00
1381,4800.00
1382,80.00
1383,4800.00
1384,4800.00
1385,4800.00
1386,4800.00
1387,4800.00
1388,4880.00
1389,4800.00
1390,4720.00
1391,4800.00
1392,4800.00
1393,80.00
1394,4800.00
1395,4800.00
1396,4800.00
1397,4800.00
1398,4800.00
1399,4880.00
1400,80.00
1401,400.00
1402,4800.00
1403,4720.00
1404,80.00
1405,4800.00
1406,4800.00
1407,4800.00
1408,4800.00
1409,80.00
1410,4800.00
1411,4800.00
1412,4720.00
1413,4720.00
1414,4720.00
1415,4800.00
1416,4800.00
1417,4800.00
1418,80.00
1419,0.00
1420,4800.00
1421,4800.00
1422,0.00
1423,4800.00
1424,4800.00
1425,4720.00
1426,80.00
1427,4800.00
1428,4800.00
1429,4720.00
1430,4880.00
1431,0.00
1432,4800.00
1433,4800.00
1434,4800.00
1435,4800.00
1436,4720.00
1437,4880.00
1438,4720.00
1439,4800.00
1440,4800.00
1441,4720.00
1442,4800.00
1443,4800.00
1444,0.00
1445,4800.00
1446,4800.00
1447,0.00
1448,4800.00
1449,4880.00
1450,4800.00
1451,4800.00
1452,4800.00
1453,0.00
1454,4720.00
1455,4800.00
1456,0.00
1457,4720.00
1458,4800.00
1459,4800.00
1460,4800.00
1461,0.00
1462,4800.00
1463,4800.00
1464,4880.00
1465,0.00
1466,4800.00
1467,4800.00
1468,4800.00
1469,80.00
1470,4640.00
1471,4880.00
1472,4800.00
1473,160.00
1474,4800.00
1475,4800.00
1476,4800.00
1477,4880.00
1478,80.00
1479,4800.00
1480,4800.00
1481,0.00
1482,4800.00
1483,4720.00
1484,4800.00
1485,4880.00
1486,4800.00
1487,4880.00
1488,4720.00
1489,4800.00
1490,4800.00
1491,4800.00
1492,4800.00
1493,4800.00
1494,4800.00
1495,4800.00
1496,4800.00
1497,4800.00
1498,4800.00
1499,4800.00
1500,4800.00
1501,4800.00
1502,4720.00
1503,4800.00
1504,4800.00
1505,0.00
1506,80.00
1507,4800.00
1508,4800.00
1509,0.00
1510,4800.00
1511,4720.00
1512,4720.00
1513,4800.00
1514,4800.00
1515,4800.00
1516,4800.00
1517,0.00
1518,160.00
1519,4800.00
1520,4800.00
1521,4800.00
1522,80.00
1523,4800.00
1524,4720.00
1525,4800.00
1526,4800.00
1527,4800.00
1528,4720.00
1529,4800.00
1530,4800.00
1531,4800.00
1532,4800.00
1533,4720.00
1534,4720.00
1535,80.00
1536,4880.00
1537,4720.00
1538,4800.00
1539,80.00
1540,4800.00
1541,4800.00
1542,4800.00
1543,4800.00
1544,0.00
1545,4720.00
1546,4800.00
1547,0.00
1548,4800.00
1549,4720.00
1550,0.00
1551,160.00
1552,4800.00
1553,4800.00
1554,0.00
1555,4800.00
1556,4800.00
1557,4720.00
1558,4800.00
1559,4800.00
1560,4800.00
1561,4800.00
1562,4800.00
1563,4800.00
1564,4800.00
1565,4800.00
1566,4640.00
1567,4720.00
1568,4800.00
1569,4800.00
1570,4800.00
1571,0.00
1572,4800.00
1573,4720.00
1574,4800.00
1575,4800.00
1576,4800.00
1577,4720.00
1578,4720.00
1579,4800.00
1580,4800.00
1581,4800.00
1582,4720.00
1583,4720.00
1584,4720.00
1585,4800.00
1586,4800.00
1587,0.00
1588,3200.00
1589,4800.00
1590,4800.00
1591,4800.00
1592,4800.00
1593,4800.00
1594,4800.00
1595,4800.00
1596,4720.00
1597,4800.00
1598,0.00
1599,4720.00
1600,4720.00
1601,4800.00
1602,80.00
1603,80.00
1604,4720.00
1605,4800.00
1606,4800.00
1607,4800.00
1608,4800.00
1609,4800.00
1610,4800.00
1611,4800.00
1612,4800.00
1613,4800.00
1614,4800.00
1615,4720.00
1616,4720.00
1617,80.00
1618,4720.00
1619,4800.00
1620,1760.00
1621,0.00
1622,4800.00
1623,4800.00
1624,4800.00
1625,4800.00
1626,4720.00
1627,4800.00
1628,4800.00
1629,4800.00
1630,4800.00
1631,80.00
1632,4800.00
1633,4880.00
1634,4800.00
1635,0.00
1636,4800.00
1637,4800.00
1638,4800.00
1639,4800.00
1640,4720.00
1641,4800.00
1642,4800.00
1643,4720.00
