floppy_drive/images/data timing/007_data_line_12.5Msps.CSV

Channel			  :,CH2
Frequency			  :,F=411.7kHz
Period 			  :,T=  ?
PK-PK				  :,Vpp=5.680V
Average			  :,V=3.514V
Vertical pos		  :,-4000.00mV
Probe attenuation	  :,10X
Voltage per ADC value:,80.00mV
Time interval		  :,0.08uS

index,CH2_Voltage(mV)
0,4800.00
1,4800.00
2,4800.00
3,4720.00
4,4800.00
5,4800.00
6,4800.00
7,4880.00
8,4800.00
9,4720.00
10,4800.00
11,4800.00
12,4800.00
13,4880.00
14,4800.00
15,4800.00
16,4720.00
17,4800.00
18,4800.00
19,4720.00
20,4800.00
21,4720.00
22,4880.00
23,4880.00
24,4800.00
25,4720.00
26,4800.00
27,0.00
28,80.00
29,160.00
30,80.00
31,160.00
32,160.00
33,0.00
34,80.00
35,160.00
36,160.00
37,80.00
38,160.00
39,4800.00
40,4880.00
41,4800.00
42,4720.00
43,4800.00
44,4880.00
45,4880.00
46,4720.00
47,4720.00
48,4960.00
49,4800.00
50,4880.00
51,4720.00
52,4720.00
53,4720.00
54,4800.00
55,4720.00
56,4720.00
57,4800.00
58,4800.00
59,4800.00
60,4720.00
61,4960.00
62,4720.00
63,4800.00
64,4800.00
65,4800.00
66,4880.00
67,4880.00
68,4800.00
69,4880.00
70,4800.00
71,4720.00
72,4800.00
73,4720.00
74,4720.00
75,240.00
76,0.00
77,0.00
78,0.00
79,0.00
80,80.00
81,-80.00
82,80.00
83,80.00
84,0.00
85,80.00
86,0.00
87,4160.00
88,4880.00
89,4800.00
90,4800.00
91,4800.00
92,4720.00
93,4720.00
94,4880.00
95,4880.00
96,4720.00
97,4880.00
98,4800.00
99,4800.00
100,4880.00
101,4800.00
102,4800.00
103,4800.00
104,4880.00
105,4880.00
106,4720.00
107,4640.00
108,4800.00
109,4800.00
110,4720.00
111,4800.00
112,4720.00
113,4720.00
114,4800.00
115,4800.00
116,4800.00
117,4800.00
118,4720.00
119,4800.00
120,4720.00
121,4800.00
122,4800.00
123,-720.00
124,80.00
125,0.00
126,0.00
127,0.00
128,80.00
129,0.00
130,0.00
131,0.00
132,0.00
133,0.00
134,0.00
135,3840.00
136,4880.00
137,4880.00
138,4800.00
139,4800.00
140,4800.00
141,4800.00
142,4880.00
143,4880.00
144,4800.00
145,4800.00
146,4640.00
147,4800.00
148,4720.00
149,4800.00
150,4800.00
151,4720.00
152,4720.00
153,4880.00
154,4880.00
155,4720.00
156,4880.00
157,4800.00
158,4880.00
159,4720.00
160,4880.00
161,4720.00
162,4720.00
163,4800.00
164,4800.00
165,4720.00
166,4880.00
167,4960.00
168,4800.00
169,4800.00
170,4880.00
171,80.00
172,0.00
173,80.00
174,0.00
175,160.00
176,0.00
177,0.00
178,80.00
179,80.00
180,160.00
181,-80.00
182,160.00
183,4080.00
184,4800.00
185,4800.00
186,4880.00
187,4880.00
188,4800.00
189,4880.00
190,4800.00
191,4720.00
192,4800.00
193,4800.00
194,4720.00
195,4800.00
196,4720.00
197,4800.00
198,4720.00
199,4720.00
200,4800.00
201,4880.00
202,4720.00
203,4720.00
204,4720.00
205,4800.00
206,4800.00
207,4720.00
208,4720.00
209,4880.00
210,4720.00
211,4800.00
212,4640.00
213,4800.00
214,4720.00
215,4800.00
216,4880.00
217,4720.00
218,4800.00
219,4800.00
220,4880.00
221,1680.00
222,-80.00
223,160.00
224,160.00
225,80.00
226,160.00
227,80.00
228,80.00
229,80.00
230,160.00
231,80.00
232,160.00
233,3280.00
234,4800.00
235,4720.00
236,4720.00
237,4800.00
238,4720.00
239,4720.00
240,4720.00
241,4800.00
242,4800.00
243,4720.00
244,4800.00
245,4800.00
246,4880.00
247,4720.00
248,4720.00
249,4720.00
250,4800.00
251,4640.00
252,4800.00
253,4720.00
254,4880.00
255,4800.00
256,4800.00
257,4800.00
258,4800.00
259,4720.00
260,4880.00
261,4640.00
262,4800.00
263,4720.00
264,4880.00
265,4880.00
266,4800.00
267,4880.00
268,4880.00
269,4800.00
270,1760.00
271,0.00
272,0.00
273,80.00
274,0.00
275,-80.00
276,160.00
277,0.00
278,80.00
279,0.00
280,0.00
281,160.00
282,2960.00
283,4800.00
284,4800.00
285,4880.00
286,4800.00
287,4720.00
288,4720.00
289,4880.00
290,4880.00
291,4720.00
292,4800.00
293,4800.00
294,4800.00
295,4880.00
296,4640.00
297,4720.00
298,4800.00
299,4720.00
300,4720.00
301,4800.00
302,4800.00
303,4800.00
304,4880.00
305,4800.00
306,4800.00
307,4800.00
308,4720.00
309,4720.00
310,4720.00
311,4720.00
312,4720.00
313,4720.00
314,4800.00
315,4720.00
316,4720.00
317,4880.00
318,4720.00
319,4800.00
320,4720.00
321,4800.00
322,4880.00
323,3920.00
324,0.00
325,80.00
326,0.00
327,-80.00
328,0.00
329,0.00
330,-80.00
331,0.00
332,-80.00
333,0.00
334,0.00
335,2320.00
336,4800.00
337,4800.00
338,4880.00
339,4800.00
340,4720.00
341,4880.00
342,4880.00
343,4720.00
344,4800.00
345,4880.00
346,4720.00
347,4800.00
348,4720.00
349,4800.00
350,4880.00
351,4880.00
352,4880.00
353,4720.00
354,4800.00
355,4720.00
356,4800.00
357,4800.00
358,4800.00
359,4800.00
360,4880.00
361,4720.00
362,4800.00
363,4640.00
364,4720.00
365,4800.00
366,4800.00
367,4720.00
368,4800.00
369,4800.00
370,4720.00
371,4720.00
372,4800.00
373,4640.00
374,4720.00
375,4880.00
376,4800.00
377,4720.00
378,4800.00
379,4720.00
380,4800.00
381,4880.00
382,4720.00
383,4720.00
384,4720.00
385,4720.00
386,4880.00
387,4720.00
388,4880.00
389,4640.00
390,4720.00
391,4800.00
392,4640.00
393,4800.00
394,4720.00
395,4720.00
396,4880.00
397,4800.00
398,4800.00
399,4720.00
400,4800.00
401,4800.00
402,4720.00
403,4720.00
404,4800.00
405,4800.00
406,4800.00
407,4800.00
408,4800.00
409,4800.00
410,4720.00
411,4800.00
412,4720.00
413,4880.00
414,4800.00
415,4720.00
416,4800.00
417,4800.00
418,4880.00
419,4800.00
420,4720.00
421,4720.00
422,4720.00
423,4800.00
424,4800.00
425,4880.00
426,4880.00
427,4800.00
428,4800.00
429,4880.00
430,4800.00
431,4800.00
432,4720.00
433,4720.00
434,4880.00
435,4720.00
436,4880.00
437,4880.00
438,4720.00
439,4880.00
440,4720.00
441,4800.00
442,4640.00
443,4720.00
444,4720.00
445,4800.00
446,4800.00
447,4800.00
448,4800.00
449,4720.00
450,4800.00
451,4800.00
452,4800.00
453,4720.00
454,4640.00
455,4880.00
456,4720.00
457,4720.00
458,4880.00
459,4880.00
460,4800.00
461,4720.00
462,4720.00
463,4800.00
464,0.00
465,-80.00
466,-80.00
467,0.00
468,80.00
469,80.00
470,-80.00
471,160.00
472,80.00
473,0.00
474,160.00
475,160.00
476,4800.00
477,4720.00
478,4880.00
479,4800.00
480,4800.00
481,4800.00
482,4720.00
483,4800.00
484,4880.00
485,4880.00
486,4800.00
487,4800.00
488,4720.00
489,4800.00
490,4800.00
491,4720.00
492,4720.00
493,4720.00
494,4720.00
495,4800.00
496,4800.00
497,4800.00
498,4800.00
499,4880.00
500,4960.00
501,4880.00
502,4800.00
503,4800.00
504,4800.00
505,4720.00
506,4800.00
507,4880.00
508,4800.00
509,4720.00
510,4800.00
511,4800.00
512,4800.00
513,4800.00
514,4800.00
515,4800.00
516,4720.00
517,0.00
518,80.00
519,80.00
520,0.00
521,-80.00
522,80.00
523,80.00
524,80.00
525,80.00
526,80.00
527,80.00
528,400.00
529,4720.00
530,4880.00
531,4800.00
532,4800.00
533,4640.00
534,4880.00
535,4720.00
536,4880.00
537,4800.00
538,4800.00
539,4880.00
540,4720.00
541,4720.00
542,4800.00
543,4720.00
544,4720.00
545,4720.00
546,4720.00
547,4800.00
548,4720.00
549,4800.00
550,4800.00
551,4800.00
552,4880.00
553,4800.00
554,4800.00
555,4800.00
556,4880.00
557,4720.00
558,4720.00
559,4880.00
560,4800.00
561,4800.00
562,4720.00
563,4640.00
564,4720.00
565,80.00
566,80.00
567,0.00
568,160.00
569,80.00
570,160.00
571,0.00
572,80.00
573,80.00
574,160.00
575,0.00
576,80.00
577,4640.00
578,4800.00
579,4800.00
580,4800.00
581,4720.00
582,4880.00
583,4800.00
584,4720.00
585,4720.00
586,4880.00
587,4720.00
588,4720.00
589,4720.00
590,4720.00
591,4720.00
592,4800.00
593,4720.00
594,4800.00
595,4800.00
596,4720.00
597,4720.00
598,4800.00
599,4800.00
600,4800.00
601,4800.00
602,4880.00
603,4720.00
604,4800.00
605,4720.00
606,4720.00
607,4800.00
608,4880.00
609,4800.00
610,4720.00
611,4720.00
612,4880.00
613,0.00
614,0.00
615,80.00
616,0.00
617,0.00
618,80.00
619,80.00
620,80.00
621,0.00
622,160.00
623,80.00
624,0.00
625,4960.00
626,4720.00
627,4800.00
628,4880.00
629,4640.00
630,4880.00
631,4720.00
632,4800.00
633,4720.00
634,4800.00
635,4800.00
636,4720.00
637,4880.00
638,4720.00
639,4880.00
640,4720.00
641,4800.00
642,4800.00
643,4720.00
644,4800.00
645,4960.00
646,4800.00
647,4720.00
648,4880.00
649,4800.00
650,4720.00
651,4800.00
652,4720.00
653,4880.00
654,4720.00
655,4800.00
656,4720.00
657,4800.00
658,4880.00
659,4800.00
660,4720.00
661,4800.00
662,1680.00
663,0.00
664,160.00
665,80.00
666,0.00
667,0.00
668,160.00
669,160.00
670,160.00
671,0.00
672,0.00
673,80.00
674,3120.00
675,4800.00
676,4800.00
677,4880.00
678,4880.00
679,4720.00
680,4880.00
681,4880.00
682,4880.00
683,4720.00
684,4720.00
685,4880.00
686,4800.00
687,4720.00
688,4800.00
689,4800.00
690,4720.00
691,4880.00
692,4720.00
693,4720.00
694,4800.00
695,4800.00
696,4720.00
697,4800.00
698,4800.00
699,4640.00
700,4800.00
701,4720.00
702,4720.00
703,4800.00
704,4880.00
705,4720.00
706,4720.00
707,4720.00
708,4720.00
709,4720.00
710,4720.00
711,-800.00
712,0.00
713,160.00
714,0.00
715,0.00
716,0.00
717,80.00
718,0.00
719,80.00
720,0.00
721,0.00
722,0.00
723,3920.00
724,4800.00
725,4720.00
726,4800.00
727,4880.00
728,4960.00
729,4880.00
730,4800.00
731,4720.00
732,4800.00
733,4720.00
734,4640.00
735,4800.00
736,4800.00
737,4880.00
738,4720.00
739,4720.00
740,4800.00
741,4880.00
742,4800.00
743,4720.00
744,4800.00
745,4720.00
746,4720.00
747,4720.00
748,4880.00
749,4880.00
750,4800.00
751,4800.00
752,4800.00
753,4800.00
754,4720.00
755,4800.00
756,4880.00
757,4720.00
758,4720.00
759,4800.00
760,4800.00
761,3200.00
762,0.00
763,0.00
764,160.00
765,160.00
766,80.00
767,160.00
768,160.00
769,160.00
770,0.00
771,0.00
772,160.00
773,2560.00
774,4880.00
775,4720.00
776,4800.00
777,4720.00
778,4800.00
779,4720.00
780,4720.00
781,4880.00
782,4880.00
783,4640.00
784,4720.00
785,4720.00
786,4800.00
787,4800.00
788,4720.00
789,4720.00
790,4800.00
791,4800.00
792,4640.00
793,4800.00
794,4720.00
795,4720.00
796,4800.00
797,4800.00
798,4800.00
799,4720.00
800,4720.00
801,4880.00
802,4720.00
803,4800.00
804,4800.00
805,4720.00
806,4880.00
807,4720.00
808,4880.00
809,4880.00
810,4720.00
811,4800.00
812,4720.00
813,4640.00
814,160.00
815,0.00
816,80.00
817,80.00
818,0.00
819,0.00
820,80.00
821,80.00
822,0.00
823,80.00
824,80.00
825,160.00
826,4160.00
827,4960.00
828,4800.00
829,4880.00
830,4960.00
831,4880.00
832,4720.00
833,4800.00
834,4880.00
835,4800.00
836,4800.00
837,4800.00
838,4880.00
839,4960.00
840,4720.00
841,4800.00
842,4800.00
843,4720.00
844,4800.00
845,4720.00
846,4800.00
847,4800.00
848,4880.00
849,4720.00
850,4800.00
851,4720.00
852,4720.00
853,4880.00
854,4800.00
855,4800.00
856,4800.00
857,4800.00
858,4880.00
859,4880.00
860,4720.00
861,4800.00
862,4800.00
863,4720.00
864,4800.00
865,4800.00
866,4880.00
867,4800.00
868,4720.00
869,4720.00
870,4800.00
871,4880.00
872,4800.00
873,4800.00
874,4720.00
875,4800.00
876,4800.00
877,4720.00
878,4800.00
879,4800.00
880,4800.00
881,4720.00
882,4880.00
883,4800.00
884,4800.00
885,4640.00
886,4800.00
887,4800.00
888,4720.00
889,4800.00
890,4800.00
891,4720.00
892,4720.00
893,4800.00
894,4800.00
895,4640.00
896,4800.00
897,4720.00
898,4880.00
899,4720.00
900,4720.00
901,4800.00
902,4800.00
903,4720.00
904,4800.00
905,4880.00
906,4720.00
907,4640.00
908,4880.00
909,4800.00
910,4720.00
911,4720.00
912,4800.00
913,4800.00
914,4720.00
915,4880.00
916,4800.00
917,4640.00
918,4800.00
919,4640.00
920,4800.00
921,4800.00
922,4800.00
923,4720.00
924,4800.00
925,4720.00
926,4800.00
927,4640.00
928,4880.00
929,4880.00
930,4800.00
931,4800.00
932,4640.00
933,4720.00
934,4800.00
935,4720.00
936,4720.00
937,4720.00
938,4880.00
939,4720.00
940,4800.00
941,4720.00
942,4800.00
943,4720.00
944,4800.00
945,4720.00
946,4720.00
947,4720.00
948,4800.00
949,4720.00
950,4720.00
951,4720.00
952,4800.00
953,4800.00
954,4640.00
955,240.00
956,-80.00
957,0.00
958,0.00
959,-80.00
960,0.00
961,80.00
962,0.00
963,160.00
964,0.00
965,0.00
966,0.00
967,3440.00
968,4800.00
969,4800.00
970,4800.00
971,4880.00
972,4800.00
973,4640.00
974,4800.00
975,4800.00
976,4800.00
977,4720.00
978,4720.00
979,4800.00
980,4880.00
981,4720.00
982,4640.00
983,4800.00
984,4640.00
985,4640.00
986,4720.00
987,4800.00
988,4800.00
989,4800.00
990,4800.00
991,4880.00
992,4880.00
993,4720.00
994,4720.00
995,4640.00
996,4800.00
997,4800.00
998,4800.00
999,4800.00
1000,4800.00
1001,4800.00
1002,4720.00
1003,4720.00
1004,4800.00
1005,4720.00
1006,4560.00
1007,4720.00
1008,0.00
1009,-160.00
1010,80.00
1011,0.00
1012,0.00
1013,0.00
1014,0.00
1015,80.00
1016,-80.00
1017,0.00
1018,80.00
1019,80.00
1020,4720.00
1021,4800.00
1022,4880.00
1023,4880.00
1024,4800.00
1025,4880.00
1026,4720.00
1027,4720.00
1028,4800.00
1029,4800.00
1030,4800.00
1031,4800.00
1032,4800.00
1033,4720.00
1034,4720.00
1035,4640.00
1036,4880.00
1037,4720.00
1038,4720.00
1039,4800.00
1040,4800.00
1041,4880.00
1042,4800.00
1043,4800.00
1044,4880.00
1045,4720.00
1046,4880.00
1047,4720.00
1048,4800.00
1049,4800.00
1050,4800.00
1051,4800.00
1052,4640.00
1053,4720.00
1054,4720.00
1055,0.00
1056,0.00
1057,0.00
1058,0.00
1059,0.00
1060,0.00
1061,0.00
1062,80.00
1063,0.00
1064,0.00
1065,0.00
1066,0.00
1067,4720.00
1068,4800.00
1069,4880.00
1070,4800.00
1071,4800.00
1072,4880.00
1073,4800.00
1074,4720.00
1075,4800.00
1076,4880.00
1077,4800.00
1078,4880.00
1079,4800.00
1080,4800.00
1081,4800.00
1082,4800.00
1083,4720.00
1084,4880.00
1085,4720.00
1086,4720.00
1087,4720.00
1088,4800.00
1089,4720.00
1090,4720.00
1091,4720.00
1092,4880.00
1093,4800.00
1094,4720.00
1095,4720.00
1096,4800.00
1097,4800.00
1098,4720.00
1099,4880.00
1100,4800.00
1101,4720.00
1102,4800.00
1103,4880.00
1104,1360.00
1105,-80.00
1106,-80.00
1107,-80.00
1108,80.00
1109,80.00
1110,0.00
1111,0.00
1112,0.00
1113,0.00
1114,0.00
1115,0.00
1116,3280.00
1117,4800.00
1118,4800.00
1119,4800.00
1120,4720.00
1121,4800.00
1122,4800.00
1123,4800.00
1124,4800.00
1125,4800.00
1126,4880.00
1127,4880.00
1128,4800.00
1129,4640.00
1130,4800.00
1131,4720.00
1132,4720.00
1133,4800.00
1134,4880.00
1135,4720.00
1136,4720.00
1137,4720.00
1138,4800.00
1139,4800.00
1140,4800.00
1141,4720.00
1142,4880.00
1143,4800.00
1144,4800.00
1145,4800.00
1146,4720.00
1147,4880.00
1148,4800.00
1149,4800.00
1150,4800.00
1151,4800.00
1152,4800.00
1153,4720.00
1154,160.00
1155,80.00
1156,160.00
1157,80.00
1158,80.00
1159,160.00
1160,160.00
1161,160.00
1162,160.00
1163,0.00
1164,160.00
1165,160.00
1166,4800.00
1167,4800.00
1168,4720.00
1169,4800.00
1170,4720.00
1171,4960.00
1172,4880.00
1173,4800.00
1174,4720.00
1175,4880.00
1176,4880.00
1177,4640.00
1178,4800.00
1179,4720.00
1180,4720.00
1181,4800.00
1182,4720.00
1183,4800.00
1184,4800.00
1185,4720.00
1186,4800.00
1187,4800.00
1188,4880.00
1189,4720.00
1190,4720.00
1191,4800.00
1192,4800.00
1193,4800.00
1194,4960.00
1195,4880.00
1196,4880.00
1197,4800.00
1198,4720.00
1199,4800.00
1200,4720.00
1201,4880.00
1202,0.00
1203,80.00
1204,80.00
1205,80.00
1206,0.00
1207,80.00
1208,80.00
1209,80.00
1210,160.00
1211,160.00
1212,160.00
1213,160.00
1214,4800.00
1215,4800.00
1216,4880.00
1217,4800.00
1218,4720.00
1219,4800.00
1220,4720.00
1221,4800.00
1222,4880.00
1223,4800.00
1224,4720.00
1225,4880.00
1226,4800.00
1227,4720.00
1228,4800.00
1229,4800.00
1230,4800.00
1231,4720.00
1232,4880.00
1233,4800.00
1234,4800.00
1235,4800.00
1236,4800.00
1237,4640.00
1238,4800.00
1239,4800.00
1240,4800.00
1241,4960.00
1242,4880.00
1243,4720.00
1244,4720.00
1245,4720.00
1246,4800.00
1247,4800.00
1248,4720.00
1249,160.00
1250,0.00
1251,80.00
1252,80.00
1253,0.00
1254,80.00
1255,160.00
1256,80.00
1257,160.00
1258,160.00
1259,80.00
1260,80.00
1261,3440.00
1262,4800.00
1263,4880.00
1264,4880.00
1265,4960.00
1266,4720.00
1267,4720.00
1268,4800.00
1269,4720.00
1270,4720.00
1271,4880.00
1272,4880.00
1273,4960.00
1274,4800.00
1275,4800.00
1276,4800.00
1277,4800.00
1278,4800.00
1279,4720.00
1280,4800.00
1281,4800.00
1282,4720.00
1283,4720.00
1284,4800.00
1285,4720.00
1286,4800.00
1287,4800.00
1288,4880.00
1289,4720.00
1290,4880.00
1291,4800.00
1292,4720.00
1293,4800.00
1294,4800.00
1295,4800.00
1296,4800.00
1297,4800.00
1298,4800.00
1299,4800.00
1300,4800.00
1301,160.00
1302,80.00
1303,80.00
1304,80.00
1305,160.00
1306,80.00
1307,160.00
1308,160.00
1309,160.00
1310,-80.00
1311,0.00
1312,80.00
1313,4560.00
1314,4880.00
1315,4880.00
1316,4800.00
1317,4800.00
1318,4800.00
1319,4720.00
1320,4720.00
1321,4800.00
1322,4720.00
1323,4720.00
1324,4720.00
1325,4800.00
1326,4720.00
1327,4720.00
1328,4720.00
1329,4720.00
1330,4720.00
1331,4800.00
1332,4720.00
1333,4720.00
1334,4800.00
1335,4640.00
1336,4720.00
1337,4880.00
1338,4800.00
1339,4720.00
1340,4800.00
1341,4800.00
1342,4800.00
1343,4800.00
1344,4800.00
1345,4720.00
1346,4800.00
1347,4640.00
1348,4720.00
1349,4720.00
1350,4720.00
1351,4880.00
1352,4720.00
1353,4880.00
1354,4720.00
1355,4880.00
1356,4800.00
1357,4720.00
1358,4800.00
1359,4720.00
1360,4800.00
1361,4800.00
1362,4880.00
1363,4800.00
1364,4800.00
1365,4880.00
1366,4720.00
1367,4800.00
1368,4800.00
1369,4800.00
1370,4880.00
1371,4800.00
1372,4800.00
1373,4800.00
1374,4720.00
1375,4800.00
1376,4800.00
1377,4800.00
1378,4720.00
1379,4720.00
1380,4720.00
1381,4800.00
1382,4800.00
1383,4720.00
1384,4800.00
1385,4880.00
1386,4720.00
1387,4800.00
1388,4720.00
1389,4880.00
1390,4800.00
1391,4640.00
1392,4720.00
1393,4720.00
1394,4720.00
1395,4720.00
1396,4720.00
1397,4880.00
1398,4880.00
1399,4880.00
1400,4720.00
1401,4720.00
1402,4800.00
1403,4800.00
1404,4800.00
1405,4880.00
1406,4880.00
1407,4960.00
1408,4800.00
1409,4880.00
1410,4800.00
1411,4720.00
1412,4800.00
1413,4800.00
1414,4640.00
1415,4800.00
1416,4800.00
1417,4720.00
1418,4880.00
1419,4720.00
1420,4800.00
1421,4800.00
1422,4720.00
1423,4720.00
1424,4800.00
1425,4720.00
1426,4720.00
1427,4800.00
1428,4960.00
1429,4800.00
1430,4800.00
1431,4800.00
1432,4800.00
1433,4640.00
1434,4880.00
1435,4640.00
1436,4640.00
1437,4880.00
1438,4880.00
1439,4640.00
1440,4800.00
1441,4720.00
1442,4800.00
1443,4800.00
1444,0.00
1445,0.00
1446,0.00
1447,0.00
1448,160.00
1449,0.00
1450,160.00
1451,160.00
1452,80.00
1453,80.00
1454,160.00
1455,160.00
1456,4720.00
1457,4880.00
1458,4720.00
1459,4800.00
1460,4880.00
1461,4800.00
1462,4800.00
1463,4720.00
1464,4800.00
1465,4880.00
1466,4720.00
1467,4800.00
1468,4720.00
1469,4800.00
1470,4880.00
1471,4720.00
1472,4720.00
1473,4720.00
1474,4720.00
1475,4800.00
1476,4720.00
1477,4720.00
1478,4720.00
1479,4720.00
1480,4720.00
1481,4720.00
1482,4880.00
1483,4800.00
1484,4880.00
1485,4800.00
1486,4800.00
1487,4800.00
1488,4800.00
1489,4640.00
1490,4720.00
1491,4720.00
1492,4720.00
1493,4880.00
1494,4880.00
1495,4800.00
1496,4880.00
1497,4720.00
1498,-160.00
1499,80.00
1500,80.00
1501,80.00
1502,160.00
1503,80.00
1504,160.00
1505,160.00
1506,80.00
1507,80.00
1508,0.00
1509,80.00
1510,4640.00
1511,4720.00
1512,4800.00
1513,4880.00
1514,4800.00
1515,4720.00
1516,4800.00
1517,4960.00
1518,4800.00
1519,4720.00
1520,4800.00
1521,4720.00
1522,4800.00
1523,4720.00
1524,4800.00
1525,4800.00
1526,4720.00
1527,4800.00
1528,4720.00
1529,4800.00
1530,4720.00
1531,4720.00
1532,4720.00
1533,4800.00
1534,4800.00
1535,4720.00
1536,4720.00
1537,4880.00
1538,4640.00
1539,4720.00
1540,4720.00
1541,4720.00
1542,4800.00
1543,4640.00
1544,4800.00
1545,4800.00
1546,160.00
1547,80.00
1548,160.00
1549,80.00
1550,0.00
1551,0.00
1552,80.00
1553,160.00
1554,160.00
1555,80.00
1556,80.00
1557,80.00
1558,4480.00
1559,4880.00
1560,4880.00
1561,4800.00
1562,4880.00
1563,4880.00
1564,4880.00
1565,4800.00
1566,4640.00
1567,4720.00
1568,4800.00
1569,4800.00
1570,4800.00
1571,4720.00
1572,4640.00
1573,4800.00
1574,4720.00
1575,4800.00
1576,4720.00
1577,4800.00
1578,4800.00
1579,4720.00
1580,4800.00
1581,4720.00
1582,4800.00
1583,4720.00
1584,4880.00
1585,4880.00
1586,4720.00
1587,4720.00
1588,4720.00
1589,4720.00
1590,4720.00
1591,4800.00
1592,4880.00
1593,4720.00
1594,4880.00
1595,4880.00
1596,0.00
1597,0.00
1598,80.00
1599,-80.00
1600,0.00
1601,0.00
1602,160.00
1603,80.00
1604,160.00
1605,80.00
1606,160.00
1607,160.00
1608,4720.00
1609,4800.00
1610,4800.00
1611,4800.00
1612,4800.00
1613,4800.00
1614,4720.00
1615,4800.00
1616,4720.00
1617,4880.00
1618,4960.00
1619,4720.00
1620,4720.00
1621,4800.00
1622,4640.00
1623,4800.00
1624,4800.00
1625,4800.00
1626,4800.00
1627,4880.00
1628,4720.00
1629,4800.00
1630,4720.00
1631,4720.00
1632,4800.00
1633,4800.00
1634,4880.00
1635,4800.00
1636,4800.00
1637,4720.00
1638,4720.00
1639,4800.00
1640,4800.00
1641,4800.00
1642,4720.00
1643,2320.00
1644,-80.00
1645,0.00
1646,0.00
1647,160.00
1648,160.00
1649,80.00
1650,160.00
1651,80.00
1652,80.00
1653,80.00
1654,160.00
1655,2880.00
